mnist_verilog/project_1/project_1.sim/sim_1/behav/xsim/bnn_test.vcd
$date
   Sat Mar 21 22:33:16 2026
$end

$version
  2023.2
  $dumpfile ("bnn_test.vcd") 
$end

$timescale
  1ps
$end

$scope module tb $end
$var reg 1 ! clk $end
$var reg 1 " rst_n $end
$var reg 1 # start $end
$var reg 784 $ image_in [783:0] $end
$var reg 4 % current_digit [3:0] $end
$var wire 4 & digit_out [3:0] $end
$var wire 1 ' valid $end
$var integer 32 ( pass_count [31:0] $end
$var integer 32 ) fail_count [31:0] $end
$var integer 32 * tc [31:0] $end
$var integer 32 + popcount [31:0] $end
$var integer 32 , i [31:0] $end
$var integer 32 - d [31:0] $end
$var integer 32 . w1_popcount [31:0] $end
$var reg 3 / prev_state [2:0] $end
$scope module dut $end
$var wire 1 0 clk $end
$var wire 1 1 rst_n $end
$var wire 1 2 start $end
$var wire 784 3 image_in [783:0] $end
$var reg 4 4 digit_out [3:0] $end
$var reg 1 5 valid $end
$var reg 3 6 state [2:0] $end
$var reg 1 7 start_latched $end
$var reg 10 8 idx [9:0] $end
$var reg 512 9 hidden1 [511:0] $end
$var reg 256 : hidden2 [255:0] $end
$var reg 4 ; argmax_idx [3:0] $end
$var reg 25 < argmax_max [24:0] $end
$var integer 32 = ai [31:0] $end
$scope function popcount784 $end
$var reg 10 > popcount784 [9:0] $end
$var reg 784 ? vec [783:0] $end
$var integer 32 @ k [31:0] $end
$var reg 10 A cnt [9:0] $end
$upscope $end
$scope function popcount512 $end
$var reg 10 B popcount512 [9:0] $end
$var reg 512 C vec [511:0] $end
$var integer 32 D k [31:0] $end
$var reg 10 E cnt [9:0] $end
$upscope $end
$scope function masked_sum $end
$upscope $end
$upscope $end
$scope task load_image $end
$var reg 4 F digit [3:0] $end
$upscope $end
$scope task run_inference $end
$var reg 4 G expected_digit [3:0] $end
$upscope $end
$upscope $end
$enddefinitions $end

#0
$dumpvars
0!
0"
0#
b0 $
bx %
bx &
x'
b0 (
b0 )
bx *
bx +
b1100010000 ,
bx -
b110100100 .
bx /
00
01
02
b0 3
bx 4
x5
bx 6
x7
bx 8
bx 9
bx :
bx ;
bx <
bx =
bx >
bx ?
bx @
bx A
bx B
bx C
bx D
bx E
bx F
bx G
$end

#5000
1!
b0 &
0'
10
b0 4
05
b0 6
07
b0 8
b0 9
b0 :

#10000
0!
00

#15000
1!
10

#20000
0!
00

#25000
1!
10

#30000
0!
00

#35000
1!
10

#40000
0!
00

#45000
1!
1"
10
11

#50000
0!
00

#55000
1!
10

#60000
0!
00

#65000
1!
10

#70000
0!
00

#75000
1!
1#
b11100000000000000000000000011111000000000000000000000001111100000000000000000000011111111100000000000000000001111111111000000000000000001111111111100000000000000001111111111111000000000000000111111000011110000000000000111110000001111100000000000011110000000011110000000000001110000000001111000000000000111000000001111100000000000011100000001111100000000000001110000001111110000000000000111000001111110000000000000011111111111110000000000000001111111111111000000000000000011111111111000000000000000001111111110000000000000000000001111110000000000000000000000000000000000000000000000000000000000000000000000000000000000000000000000000000000000000000000000000000 $
b0 %
b10110001 +
b1100010000 ,
10
12
b11100000000000000000000000011111000000000000000000000001111100000000000000000000011111111100000000000000000001111111111000000000000000001111111111100000000000000001111111111111000000000000000111111000011110000000000000111110000001111100000000000011110000000011110000000000001110000000001111000000000000111000000001111100000000000011100000001111100000000000001110000001111110000000000000111000001111110000000000000011111111111110000000000000001111111111111000000000000000011111111111000000000000000001111111110000000000000000000001111110000000000000000000000000000000000000000000000000000000000000000000000000000000000000000000000000000000000000000000000000000 3
17
b0 F
b0 G

#80000
0!
00

#85000
1!
10
b1 6
07

#90000
0!
00

#95000
1!
0#
b0 *
10
02
b1 8
b1 9
b101101101 >
b1011110111110011010000000101011100111101110111110101110001010000010101111111111110001011011001100000100010001101000000000011100110000001110101000010011110110101111111001100010110000011001000101100000011011001010111010010000010000110010110111011001100000001110010010110010111101000000011000010011111000100100110111011110010011111110110110011011110110000000000000111000011110111100101100000111100001101111110101000011101011000010111110010110111001101001101011111000001111111100000010001111011000100111001100001101000010101001110100011000011111010100010100111100001101111111010000111011101111000101101000111110100100100111100100001101000000100001100010001000000000100000010100001111110100000000000101100000000000100000000000011000111110010010010110010111100010000001000111001111001011 ?
b1100010000 @
b101101101 A

#100000
0!
00

#105000
1!
b1 *
10
b10 8
b11 9
b110101110 >
b10010100001001111011001111011111111011010111010111110001011110100011111101111110101110111100111110101101111110111001111011101010101110010011111000110011111110111111111001111100000011110111101011000011010000000101000000001000100010000010101000000011011110110101111111100000000010101110111111111111000000001001111111111011000110100010111100011000010110000100000110110011111011001000011100001111101111000111101000010000100100101010001100000011011111001001000111010010110011011001111110101110000100001011111101011001111000100110111001000111100001101011000000110011010000110001101101111010000010100000100101010010101010000101001010111111000100100011111111010011010001111101001001100100111100011101100001001011110111111111010110111110100111111111111111111110011111100011001111111100001 ?
b1100010000 @
b110101110 A

#110000
0!
00

#115000
1!
b10 *
10
b11 8
b110000110 >
b1111110101100101101011001010000110111000110100111110110010101110110100000101111111011101101000100000101101111110010100000100011111011001111111101001100000011110110011111001110110111001111000110101010100101100001111101011011110111111100111111111010111010111111110101101110110101011101001111010111111000110011111110011011100000010011010010000010001001111001110111101010011011011110000010001100011000100101001000010000101011001101010001110000101000000110001000110101110000010000010100001001111010001111001001110101000011000010101001010111100011101001100111111101000110001011101000111001000001100001110000001010011000011110101001010000100000001001101100001110001010000001011001100000111000011111000101000110100000001000110000000111010000000111000001000001101110100000011101111111111100001 ?
b1100010000 @
b110000110 A

#120000
0!
00

#125000
1!
b11 *
10
b100 8
b1011 9
b110001001 >
b1011001010101111011101000100000000000110001111001101010101011001001100100000000001101010111110110000010001101001110100100000111100101001100010010001110011111000000010111000111010101111100011010000011111100101100111001111000011110101001111101001101100110111011011100000011000100110110011011000001101110011100011100001110011011011111111010010010001111101101111011111111111100001101101110110110111100100110101011100111101001110000111111111011011000101011000100011010000001100010010100100010110110000010110010000000011111110000001000110111001011100011001000000110101100011001011101011000011000111000111000010110001001101001000001011011001100000011111001110100000100000000100100001111100101100100001100011111111100101000011010111111011001111000111011101011011010010010011001111011111011000 ?
b1100010000 @
b110001001 A

#130000
0!
00

#135000
1!
b100 *
10
b101 8
b11011 9
b110011010 >
b1100101111100001100000010101010010110000001000100000000101011000000011001011001110000110001111000101010000011100101111001000111100000000011001011111001100110101110111010001111011010111010000000111110111000101101100100100001001111011110111000100001100010001101000011101000111110011100011101111110000000001000110111110111011011110011101010110110001011111101010111001000010011101111110010011000100001010111011111111100001100100110111010110100111000011111110011011010110000010110001011111110011001001010011111000010001010000110000100111100110100111010011011111001110000110110111001110101110110111010101011101110101011000000100001111011110010101100100111000000011010000101110001101110111000001010101111110011011001001101111111111110011010110101001111110110101011010001111111011000111101001 ?
b1100010000 @
b110011010 A

#140000
0!
00

#145000
1!
b101 *
10
b110 8
b110000100 >
b1110001000010111011011011111001010110010000000000000011111111001010011000010100010100101110100100011111111110101111111101011001010111001100111111111101011110101010010010001010110000111100010110101101111010001100111100100100101111100001111101101010111000001100001111000111101101101010000001111110011001011101110001000110010111001011111011001101010101111100100001110100111100001111011010111000001010110011010101110101011010011111010000011110011100010011111101100000110001110110011111010000000010001011010101110001010110101000100110100110101000011000011110000010101100100100000011110001100010100000100001110110100011011100100000101111111110000100111000000100111101100100001111111110000000101001001010000101001000000101100010010010011000100100011111000000111011000000110000000000110101111 ?
b1100010000 @
b110000100 A

#150000
0!
00

#155000
1!
b110 *
10
b111 8
b100101001001101000010011001010010011010000000001010111110101000110000001101101010111000100000000000111101000111110100010010010001001111100011010011110110101111110010111100011001010000010001101100111011100000110000110101111100001111111110000100011101011100111101011110001000101101000010111100001101011011011100011111001011000001111101000111010111101000110010000110110011010111000010000111111000100110100110011110001100001001111111010001011111011010100010001100110000010010101011101110110011110010100101100010001011001101100110000011000100011110000111110100000011000101110100000110010001011101000001000000001000001000100100001110101001110001110110000110101100100011011111101101110001111111111111111010000111010010011111111110000000011111001111111110111000011000100000011111010111110100 ?
b1100010000 @
b110000100 A

#160000
0!
00

#165000
1!
b111 *
10
b1000 8
b110100001 >
b1000101111101111100101010111011111111001011111111110000111111010010000001111111111100011111101111111011111000110101111111101101010111110001110110110100011011111001000101111011001111111110010000000100011111010001011100100001011111100101111010011010100001001111010000011110110000001111111100100000111000101000100111100100010001000001000000111101000110000011100100011111100110010000010111010011111111111110000100000000011100011110111000110001110010111101011111100000001100010010100010110110000001100001010010001010000010100101111001111011111010000001000100011110001011001000000100111100010110011011000010011110111111110101101011001001011110011110100111000101101111111110001111100110101010101010010101110000000010101111111010000110111000101001100001011001010101101100110100111010111000110 ?
b1100010000 @
b110100001 A

#170000
0!
00

#175000
1!
b1000 *
10
b1001 8
b100011011 9
b110011110 >
b110110100111110111111111100011011111010111000111111100000100111010101111100101000001100100001100100000000111010011110101100011100100011001010100011010010110001001111011100001000001000101011111101011001100001111111001111111100000110011011110010111111110110001000011111001100011000100000110000011111111111110000011111010010100011110011011001011000001101011110111111101101100001001110110011001111111110110000111000010100010111111111000111111011110000110101011101111011010000110110001101111101110111100001010111110111111011111100001011101100010101000001101000111111100001100001110111001101001110000101111000000001110101011010010101110011101111100101101010111001000111010100000011000001011011111110100110100110000001000111101110101100001110000000000000000000100100100001110100001110000001 ?
b1100010000 @
b110011110 A

#180000
0!
00

#185000
1!
b1001 *
10
b1010 8
b110010011 >
b1110110110100001010010111101111110000011000010000100001001100011111001110110001100101100100111000011100011101101101011010000010001100001101001011110100110011011011001001100000011011100101110111111010011111000110111111101100100110101101000111100001111111001101000100111011100011110001011000100010111111000111001011011011000001011110001111111100011010001001000000111111101110011000000100110001101111011010101110101111011110011100101000010101011100111011100001010011101010100011011010011010011110001001110100100100100010110111001001001000100011011010010101011001101101100011110011000000110100001111100001000000111110100110111111010011001111011001011111101010001011011111110101000001100100110000111111101110100001000110100101110110001110100000100000000001110110010100100101001111011001001 ?
b1100010000 @
b110010011 A

#190000
0!
00

#195000
1!
b1010 *
10
b1011 8
b10100011011 9
b101111100 >
b1111100111100111100110010000101100011000101001000000011011100111000001010000010000111110100000000010111000000011011010010001011101000000001001010000000101100000001111100101000001101101011001111010001000000011110000011111111100000001000101100000111000011000011110111110010100010000011111100000111110000101000010111111000011111110010010001000010110001000101000101000001001100011111000001101001111011010111100001101111011110000000001011111110101100011001100000011000010110100011101111011001010110110010100011101111101001101111001011101000001000011001101101011011110111011011111011110110111100111100111010111111101111001001010100110111000011111110000001100000110001111111111111100000001000000111101110010010110000000101111001111101001001010000010101100001110111101100100010011000000111111 ?
b1100010000 @
b101111100 A

#200000
0!
00

#205000
1!
b1011 *
10
b1100 8
b110100011011 9
b110001011 >
b110000010001000101011110000111111001101101000000001001001000100111100000000100110011110000000010011100001110000010000100110100101000001100110110010101111111000010000001110000010011101100111000000001010000110111100010111010000101000111111100101111011000010001011010110110001111110010010011010110111101011010011000100000011100011101111001100100100101010101110111111000011101111011111111101110111101110011111111101110111010111011000110111000110110111001001100011101110011000010010101011001111110011001111100111101100011000011101011111000101101000110011111010011100101101000000010101100101011110110001101111011100101111010010100101001110101010101111000000000111111110010011111110000011010100000000000110100001000100110010000001011100011111111011010010000000100111000110011101001110101101 ?
b1100010000 @
b110001011 A

#210000
0!
00

#215000
1!
b1100 *
10
b1101 8
b1110100011011 9
b101110001 >
b101101010000001100111111110001000000000000000000001011000100100000000000000001100101010010100111000000010001101000010011010101100111101101100011101111111001110100000000110111110101110011101010011001001101101111000010001110100001111100111100010001011101000110000100110011001110100100011100000011111011100010110000111000000111001011011100001111000001010010011111001100111101001101011100011101111111110100111011100010101001110111001100101000000010000010100011000000010111101010100000110110000011111011000000000101100001000011101000000101000011110101111000100100001000001111111110000000111001011100111111111010001000001011100010101111100000100100110010101001111010100110000001101110100111001101111111011111001011001110011111101110010010110001011110011111000100000001111101010001100001001 ?
b1100010000 @
b101110001 A

#220000
0!
00

#225000
1!
b1101 *
10
b1110 8
b11110100011011 9
b110100100 >
b101010110110001011111110000010010111111100000011010010110001111111111110110111011100001011110000000101111111011011011000100010101001110101111011111100011011110101010110001010101101000111110010110011010000011100001101100000100111100100001011110000010000110110000010110100101000011010011000111100011010100110100011001011110110010001110011101100000010100101000011001101101111011000011101000100100110101010000111110010100000010011111001011100000100100000101111101011111000000001100111001011111111011111001000001111111111010011101100110100010011101011111000000100110010101011101101111010101001000000011111111000101111001010001110111010001000000000111000101111100011110010001110010111110111101110101001011001011101111111111111111110011110001111010011101111110100100000100101011111101111111 ?
b1100010000 @
b110100100 A

#230000
0!
00

#235000
1!
b1110 *
10
b1111 8
b111110100011011 9
b101110010 >
b1111111101010101000010001101101100000011001100000100010010110010010000010011011100110110010010110001100000110000001110101100010101111111101001111111001011101000011011000000111100000000101000110101101110001111110100110011000100010001011001011100001001111001011100001110110000101111100011010001000101100110010100011101001010011110000101000000100000110000101000000001100111110110011100100000000111010101110001111111111010011011001111101110001010100001000100011010111111110100011100110011001011111000101000010111000101101010100010001101000100001111111100110010100000011001001011101000111011101111000001010010000100101000100111111000011101100001100000101111011111111100111101011000011110111111010011000000110010100111111000000000000001000101111000001000000000110011000000010100010111111110 ?
b1100010000 @
b101110010 A

#240000
0!
00

#245000
1!
b1111 *
10
b10000 8
b101110011 >
b11011110001010010001000001111010000000000001001000010000010000001011000001011110100010101011001011111000111111000000110100101111011001010011110011011101111000001011111110101000110011100101110101011000011000000111111010101001100000110000111100101000001011111011000111110000100110110001010000011111000100111111001010100001000100100011000101000011000000110010000100111000011011100100010001101111000001011110000000110110101001110010101000011111011010001100101010100011100000110110000110100110001100100111100110110001101101100101000111100100100110011110100110101000110111100000111011010100010111000011000000011100101010111111010000000011101011111000100000011000101000101111111100000011111010100001101111000100100001010111100111100110001000111111011001001000000011101111111101101111011110 ?
b1100010000 @
b101110011 A

#250000
0!
00

#255000
1!
b10000 *
10
b10001 8
b101111011 >
b1011010100001101001100100110001010001110111111101111010000010101101111101100111110010111011111111111100000000111010001111111010110001001110111001000001100001011111111110000101110001110011000001111110001000110000110111010000111101001100001011100000000011001001010011110110011100000010001111011011011111000101110001000010000110001100011101000000110101110011111101001010000111101111010101011111000000001110010100001100001001000111011000001110100010100111111101100001000100111111001111100100000010000100111010001001000111000101011011100100110010000101000011011101101111110000000010010111111010101011010001001000011011111110101001100001101001001011010010100101110110111101011001111011100000111000010110111010000001111000000000001011100011000000100100000000001101001011100000011110000001001 ?
b1100010000 @
b101111011 A

#260000
0!
00

#265000
1!
b10001 *
10
b10010 8
b110001101 >
b11110111001111000000000111000111011001110111111111011001111111111110000110001010000111001111100101011111001110100111011110100011010001110100011000011100010111001111010111101000111100100010100100001110000001101010001101011000110000100101010011100011111010000001001001100101010000111000010000110110001000000110000001011010001100110000100011010101001011110001101110101101011000110010110011011001000110111111010101011110101101001111011010001011011111011100111000110100110111110111101111011000101000000010010001101000000001001011001101101101100100111010101111001001011000011101100101000001011011101001001010011110010010101111110100001000010011010011111111110000101001010110010011101010111111110111111111000001111001000011100111000101101010000110001011000000000001100010010001101110011110 ?
b1100010000 @
b110001101 A

#270000
0!
00

#275000
1!
b10010 *
10
b10011 8
b110010000 >
b1001101101010100110111101111001100101101111111100110101110100000101011111111111111111000000111111111100111101111010111001111011100100011101001011010000001000101001011100111001011111100110001000111111110011100100000010001010100000011110100010010111110111101111010011000101111010010101011110110000000100101101000111001000011110101111000011011100100100101000100100000010101001110100001111100001011000001010000011111101100011010000111100101001111101001100011111100100001111011000100000101110100001110110110010011000110101101110010111000010100010101011100101111101010110100011100100100111111110010000100010000000111110011100001010000000001111011111011110011110000001110001101011000110111111111001110100110010000101100000000100100001001100001000000001001001101011011110010100101010011011110 ?
b1100010000 @
b110010000 A

#280000
0!
00

#285000
1!
b10011 *
10
b10100 8
b101100110 >
b1111001110100010110101101000100100110000010111000011001111000000100000000101000001011101001000010101011001000101110101010101110001100010110001100000011101010001101000010011000000110110111101011100001000011100011001010111110001110001010001111111010011000100000110001111110010001100111101100000111100111001100001100010000001000000001111101011001101000111100000001111010010110000111101001000111000010110000010011100000111110000110000000100000011111111000001111000101010011001111100100001001010100001100111010101001001011101111111111001000000011010101101110111101101110000111000111010111111100000101001101010111100111000001000010011011101100110110110100000101001110111111100000010000000101001000001101000111111000000000000011011010000010000001110011011010011111001100100100101011110000100 ?
b1100010000 @
b101100110 A

#290000
0!
00

#295000
1!
b10100 *
10
b10101 8
b101111100 >
b111001101001101101001000010111000001010001100111101000010011000100100010001111100110101111010010100111111001001101101111010111101010001001000111101000101111101110010101010000100110011000100000100010000011011010111101100010010001101000000011010101100110001100000010011111111001100000100010001011111010111111010111111100101001100000110110001110110000000100110110010000111100000000011000110010111111110001000000011100100100001110111110100011000011110010111011001000001100011111010010101010110001100100110000110011010011001100100000101000001010111111010000011101011010001101011100000100111100000000010110110110000000010010010001111100011100101110011110000001100011111110101101101110110111110111111000000110010111110101110110111110100001111000110101110001000100001010101111010011010001011 ?
b1100010000 @
b101111100 A

#300000
0!
00

#305000
1!
b10101 *
10
b10110 8
b101111000 >
b10111100100001010110000010011111001100010000100001010110111000010010110111111000000010011011001010000001010001110110110011100111101110101111100001010100001000010101001111111101011000000011110011111110010011111100101111010101111100011011111101100100011101111000100001111111011110111001100000000110100010001010001110110011111000011001010010111001110110110000111000100000011000000111110011010110000101000010111111001101011000011100000011101011000110101101110000011100010101001100110010011010011010010100011111011001110001111001000010111000101011000110110001110110110001011000101000110101110101100100100000000010011101111100001101011100100010110000011110001001111011000011000100111110111010010100010101111110011011010010000101111010010001000001000001001001010000000000000110100101001 ?
b1100010000 @
b101111000 A

#310000
0!
00

#315000
1!
b10110 *
10
b10111 8
b10000000111110100011011 9
b110011100 >
b1001111010111010010010111010001110011110001110011011000101010111011100111001100010111111101000000000100111110011110110100111011110001101101111101101000001100011101110010100110110001111100111111011110111010100001111011100101000001110111100000010111000100100111010101000000010000101000111110001010000111000101100111100100001011011110001100000111001100011001111100010001111110000101110111110101001001110000100100001101100111111111100110111011101101100101010001011011011111010000101100011100111101111011011000010101101001111010001110111110000011100000000011111100100011001111101010000101111111000110110111010001101010100101111100111100011111111011010011110111111110011111110111110101100001001101000010101101110000101100000001111110000000000011110100011101010000001000001001000000001001000 ?
b1100010000 @
b110011100 A

#320000
0!
00

#325000
1!
b10111 *
10
b11000 8
b110000000111110100011011 9
b101110011 >
b100010010010101000100010011001110101000010111000011111111101001101010110010011101101011010000000111000010111001001100011111101010111111011101100000011100001101111100111100100000111111101100000000000011010100001101111100110010011000010001111111001111110011100000000110111100010011101010111100011101111011000000000000101000101111010000000010000110000011110000101110100101111111110001100011001101011001100111111001101111100110011011011000000101011111011111111000000110100010111101111000110011001010000011110011001100100000100111010111100110001000110110101111001001111010000101110011111001111111111111011100010110000011100001011100101111001000111000101110111100010100100000000010000011110010000100100100000100111011101000000000001101100000000000000000000010000001000001000001100010000011 ?
b1100010000 @
b101110011 A

#330000
0!
00

#335000
1!
b11000 *
10
b11001 8
b1110000000111110100011011 9
b110000101 >
b10010000001100111100001111001110000010100001011100000010100000011000011101100110100111100101100001111011000010001111100000000011101100000011000111110011000111010001010011111001110110101011100000111110110011100000101101010000000000000000111110010110010011001001100001111011101101010110010111000001100000010101010101011000011100011100011011111011110100110111010011101011011110001111010110111101010110110001100010001111010001100000100110100011010110101111100010011010000100000100110110010111110000000001100011001010101010011111100111001110110110100001101000000111011000100111111111000110010100100011111111111000101000011100101111111111000000011101000001010101010000000011110111111100000000010010000011110011101111011100110101110110100111101101111111110011001111100010010010010111110101 ?
b1100010000 @
b110000101 A

#340000
0!
00

#345000
1!
b11001 *
10
b11010 8
b101001110 >
b1000010001000100110001100010010101101111110111101110000000001101000000101111101010010101100111001101001100100011101101000000101000100111111101000001000001111011001111000101000000011001001111110010000000000001100011010111101110000000001101110101011011101100000001001000000010101110010000001000000000001101100000100000000100100110001100110010000000001110010010100000100110011001011000001001000010001001110000010111101001000000000101010000011111101000100010011000100000011100110001011111010110010110010000010000010110001001000110000100111010100001111100001000000101011010100110010010000001111001110100000111111000001100101000111110111010100001110001000000100000000000111100000100011101101011100011101001101011111111111011011111010001010111111111110111011100101000101100011010010010100100 ?
b1100010000 @
b101001110 A

#350000
0!
00

#355000
1!
b11010 *
10
b11011 8
b101110000000111110100011011 9
b110100000 >
b1100110110011110011000011010101011100011111000110110001010100110110110111111011100010101110010011110001100001110100111010010000110001110110101001011111111011010001111011011010101110100001111011111011001010000001011000001101000000110001001000000110001011110110101011111100101011111101111011011000111001100111001101111101001101001111110011111111000101101011000011101000001000001010000100010000001111011000111010001010100010110000100111111010100010000010000011111111110011010000001010001110101010111001100100000000111001011011110100110101100011111111010110101010010011101100101010110100110011011111001001010101011101010101100010011110110010101011111001111100000000000101000010001111101111110000000001010110101011111111100010101101111100111111111011100101000110110101110100010010011111111 ?
b1100010000 @
b110100000 A

#360000
0!
00

#365000
1!
b11011 *
10
b11100 8
b1101110000000111110100011011 9
b110011010 >
b1111000001101001000011110000010011100111100100101000100110001011111111000100010010110001011110011111000011111111010011011010010110101111111011001010101001100110000111010110110001111011010000001110001111011110000011110000010000001111011011110111001000110001001001110111111110010010110010100110111001111011110011011110100101001000001101000101010001101011110000011100000101001100111110000101100111101011011110111101000111011010000011001111110001001000011100011100101110001000110000110001010000000111110011000011110111001010000010110000001111000000110000010101101110010000101101100011011101011011111101110000010010011001110000010111111001110101110010111011110111100111001110100001111010001001111110111111100000101101110111110101111010111111111110100110100000111111000001000100100001000111 ?
b1100010000 @
b110011010 A

#370000
0!
00

#375000
1!
b11100 *
10
b11101 8
b11101110000000111110100011011 9
b110010101 >
b1011001100111100101000111110010000010001011010111100011000110100000101111011101000010100011100000000000011101110010111111001111100111110000101100010010100100000000111010011010011110000100011011001110110001100000111101101101111001111110111111011111110010110001110111000100110110001100100110011111100010101000100111011000111001100110000010010110001000001101111100111100001100001011111000110100111111111010111100011001011011110000011000111011001100010101001100100111110001100000100111101000011100111011000000111100100001111101111100000111110111111001010111010011100111110011000111100110100110010011111101100100110011110010100101010111000101110001011100110010100101110011001000011011100010101011111101101010011111001001001100101000001000001100001000110111111001001100101101101100001100101 ?
b1100010000 @
b110010101 A

#380000
0!
00

#385000
1!
b11101 *
10
b11110 8
b101110111 >
b1001000000111101001101111000110110001110110011111100101001011111000011101001011111101100111000011111111000010011011011101111000010000100000111010001110100001100101010010100010011000010011111010111010000110011111001110111000111010010011100000001000001001111011000000110111101001001011111101010000010101010001101111010100000111110000110000000111011111100111110010001000111101110000000011000000010011111110000000111100101000001000001000000000101000000111000000010000011101101111110100110001111011010000011110101101001111011011100010111101100101000110111100000010101001001000000001101001011100100001000101011110100000011001010110000100111100010011101000001000111111100111000000110010101001000010001000001111011111111100000011011001111111000110111010001110110101110000010111100001101111100 ?
b1100010000 @
b101110111 A

#390000
0!
00

#395000
1!
b11110 *
10
b11111 8
b101111010 >
b1111001111011101111111100111100100010011101111000111111100001101100101001000100100100000100010001011100010001111000011110000101101000000011000010010000001100100110101100100010000001000000000100010011100100110000000011101100010010100101100101000110010000101010000000100100011101110101000101111101100011011111010101000010111000001001111000111101000100011001101110011010110010110111000111011010110011110110000110001010000111101110111000101010110100101001111001101101010001100001100011110100100110000100001111111111000000101100100000011101111000101111000100000000001100101011111010111000110101110010111000111111000000100011110001000010110000000011010011101011011100001000111100101110100001100001000110110010111110111000111111110000011011111110011110111111101001101101110110011110000011010 ?
b1100010000 @
b101111010 A

#400000
0!
00

#405000
1!
b11111 *
10
b100000 8
b10011101110000000111110100011011 9
b110010000 >
b1001111101100100010111010100001001010011100001011101010001011100100000001000101100100100010111101101000000011011011110111111011011011100001001000011111000111000100010001110011111110111100100001010011010010100001111010001011110100001010000011110000111101110100011100001110001111111000010010110010101111111111110011011110100000011110110111100100111101110011000111110100101100100111111110101010000101110000100011101110101001001100100111101111001101100010101111011000010010101011011111101100111001000001111110101111110011101000111001000110000010110011100010100001010001011010011111000011000010011000111110111000100001000000011001111011011101001111111111011100010111111110101000010010010010100111111100000110101010011100001110110001010101010001000000010000111011111110000010100000000010011 ?
b1100010000 @
b110010000 A

#410000
0!
00

#415000
1!
b100000 *
10
b100001 8
b110011101110000000111110100011011 9
b110011110 >
b1010101110011100000010011101100111111001110111010110011101010001101111110101111111101110111110110001111110010000011111011101111010111101100111011101001110100111100111110001110100101110010101101000110101010110100000100100111010111110011111000101110001000011111010111100001111010001011100001011100001100000000101000101001110110011000110011110000001110111001111111101110001101010101100110011110011000010010001111101100011001110101001000111101100000010001001100100111101111100011110101000010001100100100010111101110001000111101010111110100101000000010010101001111101111110100011111101110000110011001100001110111011011111001101110000111100100111001010100001110000010000001000010110011101011110001000101111010100100101000100000101101000100001000010110000001010110000111010111111100111110011 ?
b1100010000 @
b110011110 A

#420000
0!
00

#425000
1!
b100001 *
10
b100010 8
b110010101 >
b1110111001001101110100110010100000101110111111111010010111110111101111111111111000010111011111111111100010011010110111010111100011110010111101001010111101100100000001110110110110001010010001011100110011010101100100010001010111100001001100110000001111101001001010111000110011110000001101101111101110100010100001110101101100101011100100111111011111110111101000110011001101010100111111101100000101111110000111110001010011011010001010110001011000010110100111010000000001000111110001100000010011011000001111011110000010010011001100111110011100100101001100011100010110010010111100001001001011011010111101010000001000010011111101010010101100010000001000100001000000100110000110100001111100110111110000001010010001101011100010000001100001110010111011111000011011000100101111110101111010100111 ?
b1100010000 @
b110010101 A

#430000
0!
00

#435000
1!
b100010 *
10
b100011 8
b110001011 >
b1000111111111100011001000000101110111110001100101011110000011001110001110011111111110111101101011100011101011000111111100111010011000000000111101001010110100110100100101001100100101100010100000101111000000011110001000100011101101111001111000011100110001101101111000000000100000010010110110000000001110000010001001110000011011100111001010011011000010001100111110011100111100010001011011011101110111110001000111000001001101111011000111100111111001110111101101111011110011110101001110000110101100000000110000100001000011101110010100010111000011010001010111011100011000100111010101100100010010101111000100000110111000001010100011011110100110001001100010100010110110010101010011110011101100010011001111000011001011001000110111000100001000111111101110111111101001110011110110111100001110010 ?
b1100010000 @
b110001011 A

#440000
0!
00

#445000
1!
b100011 *
10
b100100 8
b100110011101110000000111110100011011 9
b110011100 >
b1111100101011011000010111001011110110110111101111111000010000110010101111111111110110001101011111111111111111001001100001000010011111111111000100101110011100011111111110111000100111110101111000101110110011011111111111000000011001101110101011111000000111111011001001111111100000010010000010000011011001101001000100011100111111101010111010111111000111100100000010000001111100010000100101100101011111100101000100000111001011100001101001110011101111101110010011101011011110101011111010001110110110111001101001100000110111111000100111011000101110000000010110110000010111010100000000001011001111101001000000001000110100010001000010100000100111101111001011100101000011010111000110110001101011111110111001110100000001000111100000011100010000001100100000000100001011010110111111111110101000000 ?
b1100010000 @
b110011100 A

#450000
0!
00

#455000
1!
b100100 *
10
b100101 8
b101111001 >
b101100010010100111001010111100001001101010010001111110100111000011111110000111110101101011100000000110100110110100001111000111100110111000100101011111100000111010010110101011110111000111100000100101011111011011011101011001111100111101111111110100000001010010111111110110001010000111101110011100100001000010000000111001110100011000000000010000000111100000010011111110011100000110011110001110001011000001101100010010111010100101010111001111110001101110100000011100110101011111100100000000111011001001111010001001101001000010100111001100110111001001001001011001000010010111001110100111110110011111111100111000110010010011100100101101000111110010011000100101001000101000011010011000001100000000010000111001000001010000000000001011100010111011111000010000001100101010101001100100011111000 ?
b1100010000 @
b101111001 A

#460000
0!
00

#465000
1!
b100101 *
10
b100110 8
b110000001 >
b1111000010010110111000001011100001001011101100001000011100110011010010000001100001110110000110011011001110111110101100110001010110111011010011011001000111010101000001010001111010010100010001101010111010010010000111010110001010101010100001001000001110001001011100000001000011111000100010001001111000010011110111000011001111001001101100111001101001011100011000010101001110100100110000010011010111111110000110100101100000001000111001111000101111100000010010010001111100111110000001000101010011110010110001100100000110001110110010000010011100010111011110010000000011100101111101111111000000110111100001101010111000000000010101110001000100010001100111010010100110000110101110111011110001000001111111110101111011111111110011111111000010011111111111111111111111000111001000000011001111100011 ?
b1100010000 @
b110000001 A

#470000
0!
00

#475000
1!
b100110 *
10
b100111 8
b100100110011101110000000111110100011011 9
b110011001 >
b100111001001101101101010010100001011111110111111101100110011001111110111111111100100111011111010101101110100100100111111111111111111000001111001111010110000110110101110101101101010000011000001100010100011010000111100000011100000110110001111110110011100100111111000101110100001010000001000011111001100100100000001110011100101100111001110100011101111111101110000001101010111101101010011101000101001010010110100001001100100000011100001000111100001110001101111100000111001011011001110110110000011110110011010100011001001010010111110101000001111011101100111100101101000010100001001111001111011011101001100001010101110011101110010100001001111001011001101001011101001111111010010100000001110001010010000001101010010100001011011100011101001111011111111100001101110111001000100010100000000101 ?
b1100010000 @
b110011001 A

#480000
0!
00

#485000
1!
b100111 *
10
b101000 8
b1100100110011101110000000111110100011011 9
b110000000 >
b1000100011110100111010010111011010001001111100101101010011111000000000010110110001011110010000111000100110100110101100010011011101000111110010100111101011011001110111001110010110100000000001011100010111110110010101011000100001001001101000010000011000100010101111000101110011001111000110100111111011000111011101010100000110010011100111111001111110110110001011010100001100010000111010011111000111000010001001111100001100011110000010111111101111000010100100010011111101111010000000110001110001111111100010110111000111000011011101100110101100011111000111010010000001101110101100011111110100001010111011100110101010101001011110110100100000111010101100000000001001000111101000010110110001111101111111110010111001100100101100010011111000001101000010000100000011010110000010000000100000000001 ?
b1100010000 @
b110000000 A

#490000
0!
00

