mnist_verilog/project_1/project_1.sim/sim_1/behav/xsim/bnn_minimal.vcd
$date
   Sat Mar 21 21:41:54 2026
$end

$version
  2023.2
  $dumpfile ("bnn_minimal.vcd") 
$end

$timescale
  1ps
$end

$scope module tb $end
$var reg 1 ! clk $end
$var reg 1 " rst_n $end
$var reg 1 # start $end
$var reg 784 $ image_in [783:0] $end
$var reg 4 % image_id [3:0] $end
$var wire 4 & digit_out [3:0] $end
$var wire 1 ' valid $end
$var integer 32 ( tc [31:0] $end
$var integer 32 ) popcount [31:0] $end
$var integer 32 * i [31:0] $end
$var reg 3 + prev_state [2:0] $end
$scope module dut $end
$var wire 1 , clk $end
$var wire 1 - rst_n $end
$var wire 1 . start $end
$var wire 784 / image_in [783:0] $end
$var reg 4 0 digit_out [3:0] $end
$var reg 1 1 valid $end
$var reg 3 2 state [2:0] $end
$var reg 1 3 start_latched $end
$var reg 10 4 idx [9:0] $end
$var reg 512 5 hidden1 [511:0] $end
$var reg 256 6 hidden2 [255:0] $end
$var reg 4 7 argmax_idx [3:0] $end
$var reg 25 8 argmax_max [24:0] $end
$var integer 32 9 ai [31:0] $end
$scope function popcount784 $end
$var reg 10 : popcount784 [9:0] $end
$var reg 784 ; vec [783:0] $end
$var integer 32 < k [31:0] $end
$var reg 10 = cnt [9:0] $end
$upscope $end
$scope function popcount512 $end
$var reg 10 > popcount512 [9:0] $end
$var reg 512 ? vec [511:0] $end
$var integer 32 @ k [31:0] $end
$var reg 10 A cnt [9:0] $end
$upscope $end
$scope function masked_sum $end
$upscope $end
$upscope $end
$scope task load_focus_image $end
$upscope $end
$upscope $end
$enddefinitions $end

#0
$dumpvars
0!
0"
0#
b111111100000000000000000000111111110000000000000000000111111111100000000000000000111100001110000000000000000011100001111000000000000000000000000111100000000000000000000000111100000000000000000000000111110000000000000000000000011110000000000000000000000011110000000000000000000000001111000000000000000000000001111000000000000000000000001111000000000000000000000000111100000000000000000000000111100000000000000000000000011100000000000000000000000001111000000000111110000000000111111111111111111100000000011111111111111111110000000000111111111111000000000000000000000000000000000000000000000000000000000000000000000000000000000000000000000000000000000000000000000000000000000000000000000000000 $
b10 %
bx &
x'
bx (
b10001110 )
b1100010000 *
bx +
0,
0-
0.
b111111100000000000000000000111111110000000000000000000111111111100000000000000000111100001110000000000000000011100001111000000000000000000000000111100000000000000000000000111100000000000000000000000111110000000000000000000000011110000000000000000000000011110000000000000000000000001111000000000000000000000001111000000000000000000000001111000000000000000000000000111100000000000000000000000111100000000000000000000000011100000000000000000000000001111000000000111110000000000111111111111111111100000000011111111111111111110000000000111111111111000000000000000000000000000000000000000000000000000000000000000000000000000000000000000000000000000000000000000000000000000000000000000000000000000 /
bx 0
x1
bx 2
x3
bx 4
bx 5
bx 6
bx 7
bx 8
bx 9
bx :
bx ;
bx <
bx =
bx >
bx ?
bx @
bx A
$end

#5000
1!
b0 &
0'
1,
b0 0
01
b0 2
03
b0 4
b0 5
b0 6

#10000
0!
0,

#15000
1!
1,

#20000
0!
0,

#25000
1!
1,

#30000
0!
0,

#35000
1!
1,

#40000
0!
0,

#45000
1!
1"
1,
1-

#50000
0!
0,

#55000
1!
1,

#60000
0!
0,

#65000
1!
1#
1,
1.
13

#70000
0!
0,

#75000
1!
1,
b1 2
03

#80000
0!
0,

#85000
1!
1,
13
b1 4
b101101000 :
b1011110111110011010000000101011100111101110111110101110001010000010101111111111110001011011110011100100010001101000000111111110110000001110101000101111110010101111111001100101011110001001000101100000000100111010011010010000010000111101110100011001100000001111101010101110111101000000010111010010000000100100110111100010100000001110110110011100011000001111100000111000000001000100110010000111100000010000110100111011101011000100000110011001011001101001110000011001110011111100000011000011010111010111001100001001100011010111110100011000001111101011100011001100001100111111010000000100001111000101101000111001011010100111101100001100111000100001100010000111110000100000010100001111110100000000000101100000000000100000000000011000111110010010010110010111100010000001000111001111001011 ;
b1100010000 <
b101101000 =

#90000
0!
0,

#95000
1!
0#
b0 (
1,
0.
b10 4
b10 5
b110101111 :
b10010100001001111011001111011111111011010111010111110001011110100011111101111110101110111011000010101101111110111001000111111010101110010011111111010011011110111111111001000001110001110111101011000000101110000001000000001000100011111010110000000011011110111010111100000000000010101111000111110000000000001001111000011101011000100010111100100101100111111000000110110000000100001011101100001111100000111111100111010000100100011101001101111111011111001010011011011101010011011001110111001111111010001011111101111101110111010110111001000101100110010101111110110011011000110001101010000110000010100000100101101101011010000100001010110000000100100011111110101101010001111101001001100100111100011101100001001011110111111111010110111110100111111111111111111110011111100011001111111100001 ;
b1100010000 <
b110101111 =

#100000
0!
0,

#105000
1!
b1 (
1,
b11 4
b110 5
b110010111 :
b1111110101100101101011001010000110111000110100111110110010101110110100000101111111011101101000011111001101111110010100000011111101011001111111101001011100011010110011111001110001010111101000110101010100110011111111001011011110111111101000111100010111010111111111010101101010101011101001110101111110111110011111110011100000110001101010010000010110100001000001011101010011000100001000001111100011000101010110000011111101011001101100110110001010100000110001011101001111111110000010100000000011011110001001001110101100111001101011001010111100001101110011001000011000110000011101000111110111101100001110000001010100111101110101000010000101111001001101100001111110100000001011001100000111000011111000101000110100000001000110000000111010000000111000001000001101110100000011101111111111100001 ;
b1100010000 <
b110010111 =

#110000
0!
0,

#115000
1!
b10 (
1,
b100 4
b1110 5
b110010000 :
b1011001010101111011101000100000000000110001111001101010101011001001100100000000001101010111110001111110001101001110100100111011110101001100010010001001111111100000010111000111101000001110011010000011111111010010111101111000011110101000000101010101100110111011010011000000100100110110011010111001100001011100011100001001111101000001111010010010110010011100000111111111111111110010101101000110111100101001010011101000101001110000001000111010100100101011000111000110001110000010010100101011010111111100110010000000111011111111111000110111001001100100110110111000101100010001011101011111100100111000111000010110110110011001000000011011000011000011111001110101111010000000100100001111100101100100001100011111111100101000011010111111011001111000111011101011011010010010011001111011111011000 ;
b1100010000 <
b110010000 =

#120000
0!
0,

#125000
1!
b11 (
1,
b101 4
b11110 5
b110010101 :
b1100101111100001100000010101010010110000001000100000000101011000000011001011001110000110001111111010110000011100101111001111011110000000011001011111110000110001110111010001111100111001000000000111110111011010011100000100001001111011111000000111001100010001101001100101011011110011100011100000110001111001000110111110000111101101101101010110110110110001100101011001000010000010000110001101000100001011000100111110011001100100110001101110101000100011111110000000110111111110110001011110111111000110100011111000010101110001001110100111100110110111101100101000111110000111110111001110010001010111010101011101110010100110000100000111011111101101100100111000001100100000101110001101110111000001010101111110011011001001101111111111110011010110101001111110110101011010001111111011000111101001 ;
b1100010000 <
b110010101 =

#130000
0!
0,

#135000
1!
b100 (
1,
b110 4
b110000001 :
b1110001000010111011011011111001010110010000000000000011111111001010011000010100010100101110100011100011111110101111111101100101000111001100111111111010111110001010010010001010001101001110010110101101111001110010111000100100101111100000000101110010111000001100000000000100001101101010000000000110010110011101110001000001110001010101111011001101101000001101011101110100111111110000011001001000001010111100101101111010011010011111100111011111100000010011111110111100111110010110011111011001100011110101010101110001110010100111010110100110101010011111100000111100101100101100000011110110011110100000100001110110011100101100100001101111110001000100111000000101000011100100001111111110000000101001001010000101001000000101100010010010011000100100011111000000111011000000110000000000110101111 ;
b1100010000 <
b110000001 =

#140000
0!
0,

#145000
1!
b101 (
1,
b111 4
b1011110 5
b110011011 :
b100101001001101000010011001010010011010000000001010111110101000110000001101101010111000100000111111011101000111110100010101110011001111100011010011001010101011110010111100011110111110000001101100111011111111000000010101111100001111110001000111011101011100111100100110010100101101000010110011001100100011011100011111110111110010001101000111010000000110111101100110110011001000111010011001111000100111011001011111110100001001111001101001010000111010100010010111010001101110101011101111111111111101010101100010001111101100011000000011000100001110111000000011110011000100110100000110101110111101000001000000001111110110100100000110101000001001110110000110100011010011011111101101110001111111111111111010000111010010011111111110000000011111001111111110111000011000100000011111010111110100 ;
b1100010000 <
b110011011 =

#150000
0!
0,

#155000
1!
b110 (
1,
b1000 4
b110100010 :
b1000101111101111100101010111011111111001011111111110000111111010010000001111111111100011111101000000111111000110101111111010001000111110001110110110011111011011001000101111011110010001100010000000100011100101111011000100001011111100100000010000010100001001111011111011101010000001111111101011000110111101000100111100011110111011111000000111101111011110010011000011111100101101111010100100011111111110001111100001111011100011110001111110000001110111101011100111100000011110010100010111111100000011111010010001010100110101010001001111011111000000110111010100000001011000000000100111011101010011011000010011110000000000101101010001001010001011110100111000100010001111110001111100110101010101010010101110000000010101111111010000110111000101001100001011001010101101100110100111010111000110 ;
b1100010000 <
b110100010 =

#160000
0!
0,

#165000
1!
b111 (
1,
b1001 4
b101011110 5
b110101001 :
b110110100111110111111111100011011111010111000111111100000100111010101111100101000001100100001011011100000111010011110101011111110100011001010100011101110110101001111011100001111100110111011111101011001111110001111101111111100000110010100110001111111110110001001100111010000011000100000111111011110000111110000011111101110010000000011011001011111100011010001011111101101111110110110101101001111111111001111111001101100010111111001111111110100010000110101000110011010101100110110001100110001111000010001010111110011011010000010001011101100000101111110011111001111100000100001110111110010101110000101111000000110001011011010011101110010010111100101101010110110110111010100000011000001011011111110100110100110000001000111101110101100001110000000000000000000100100100001110100001110000001 ;
b1100010000 <
b110101001 =

#170000
0!
0,

#175000
1!
b1000 (
1,
b1010 4
b1101011110 5
b110011100 :
b1110110110100001010010111101111110000011000010000100001001100011111001110110001100101100100111111100000011101101101011010111110011100001101001011110011010011111011001001100000100110010111110111111010011100111000111011101100100110101100111111111001111111001101001011111000000011110001011001011010110000000111001011011100100111000000001111111100100111111000111100111111101101100111000111000001101111010101010110100000011110011100011111010100100000111011100010001111100101000011011010010011111111110111110100100100000110111000111001001000100001011101101011100111101101101011110011000111001000001111100001000000000001010110111110010011000000011001011111101011110101011111110101000001100100110000111111101110100001000110100101110110001110100000100000000001110110010100100101001111011001001 ;
b1100010000 <
b110011100 =

#180000
0!
0,

#185000
1!
b1001 (
1,
b1011 4
b11101011110 5
b101111111 :
b1111100111100111100110010000101100011000101001000000011011100111000001010000010000111110100000111101011000000011011010010110111111000000001001010000111001100100001111100101000110000011001001111010001000011100000000111111111100000001001010100011111000011000011111000110001000010000011111101111111111111101000010111111111111001101100010001000010001100110100111001000001001111100000000010011001111011011000011001100000011110000000111100111111010000011001100011000100011001000011101111010000110111001100100011101111001101100000111011101000001010011110010011100101110111010011111011110001000000111100111010111111010000111001010101110111001100111110000001100001001111111111111111100000001000000111101110010010110000000101111001111101001001010000010101100001110111101100100010011000000111111 ;
b1100010000 <
b101111111 =

#190000
0!
0,

#195000
1!
b1010 (
1,
b1100 4
b101110000 :
b110000010001000101011110000111111001101101000000001001001000100111100000000100110011110000000101100000001110000010000100001000111000001100110110010010011111100010000001110000101110011110111000000001010011001001100110111010000101000110000100110111011000010001010101110101101111110010010010101110110010011010011000100111111010000011111001100100011000100100001011111000011110000100111100011110111101111100000111100001111010111011110001111001001010111001001111000001111100100010010101010000011111100111111100111101000111001100011011111000101111000001100001101101100101100000000010101011010111110110001101111011011010001010010101101001111010010101111000000001000001110010011111110000011010100000000000110100001000100110010000001011100011111111011010010000000100111000110011101001110101101 ;
b1100010000 <
b101110000 =

#200000
0!
0,

#205000
1!
b1011 (
1,
b1101 4
b1011101011110 5
b101111000 :
b101101010000001100111111110001000000000000000000001011000100100000000000000001100101010010100000111100010001101000010011101001110111101101100011101000011001010100000000110111001000000001101010011001001110010001000110001110100001111101000100001001011101000110001011110000101110100100011101111011110100100010110000111111100001010101011100001111111100100011100011001100111110110010011111101101111111111011000011101101101001110111111011101001111110000010100000011100011000001010100000111111100010000101000000000101000101001100011000000101000001110010000110011010001000000111111110000111000101011100111111111010110111111011100011101111101111100100110010101000000100100110000001101110100111001101111111011111001011001110011111101110010010110001011110011111000100000001111101010001100001001 ;
b1100010000 <
b101111000 =

#210000
0!
0,

#215000
1!
b1100 (
1,
b1110 4
b11011101011110 5
b110110111 :
b101010110110001011111110000010010111111100000011010010110001111111111110110111011100001011110111111001111111011011011000011110111001110101111011111011111011010101010110001010010000110101110010110011010011100010001001100000100111100101110011101000010000110110001101110111001000011010011001000100010101100110100011001100010000001111110011101100111111010100111111001101101100100111011110110100100110100101111111111101100000010011001110011101111000100000101100110111110111100001100111000010011110100001001000001111011011011100011100110100010001101100000110111010110010100011101101111101010101000000011111111000010000111010001111111010000111000000111000101110011101110010001110010111110111101110101001011001011101111111111111111110011110001111010011101111110100100000100101011111101111111 ;
b1100010000 <
b110110111 =

#220000
0!
0,

#225000
1!
b1101 (
1,
b1111 4
b111011101011110 5
b101110001 :
b1111111101010101000010001101101100000011001100000100010010110010010000010011011100110110010010001110000000110000001110101011110111111111101001111111110111101100011011000000111011101110111000110101101110010000000100010011000100010001010110011111001001111001011101110110101100101111100011011110000100011110010100011101110110101101110101000000100111011110100111100001100111101001100100111110000111010100001110111110000010011011001001010110000101000001000100000001011110001000011100110010000111110111011000010111000001001011011100001101000100011111000011000101010000011000001011101000000100001111000001010010000011010110100111110000011100011001100000101111010000001100111101011000011110111111010011000000110010100111111000000000000001000101111000001000000000110011000000010100010111111110 ;
b1100010000 <
b101110001 =

#230000
0!
0,

#235000
1!
b1110 (
1,
b10000 4
b1111011101011110 5
b110001100 :
b11011110001010010001000001111010000000000001001000010000010000001011000001011110100010101011110100011000111111000000110011001101011001010011110011100001111100001011111110101111011101110101110101011000000111110111011010101001100000111111111111101000001011111010111111101100100110110001011111011110111100111111001010011101110111010011000101000100101110111101100100111000000100011100001111101111000000100001000001001110101001110100010000010000111010001100110001000010011100110110000111101010000011010111100110110101001100011011000111100100110110100001010001011000110110100000111011101011110111000011000000011011010100111111011000000010010011111000100000010111011000101111111100000011111010100001101111000100100001010111100111100110001000111111011001001000000011101111111101101111011110 ;
b1100010000 <
b110001100 =

#240000
0!
0,

#245000
1!
b1111 (
1,
b10001 4
b101100010 :
b1011010100001101001100100110001010001110111111101111010000010101101111101100111110010111011111000000000000000111010001111000110100001001110111001000110000001111111111110000101001100000001000001111110001011001110110011010000111101001101110011111000000011001001011100110101111100000010001110100011010000000101110001000101100000010010011101000000001000000010000001001010000100010000010110101111000000000001101100000011001001000111101111001111011110100111111110111101001011011111001111101101100011111010111010001001100011001010101011100100110000000010111101100011101111111000000010010000000110101011010001001000100100001110101000100001100110001011010010100100001000111101011001111011100000111000010110111010000001111000000000001011100011000000100100000000001101001011100000011110000001001 ;
b1100010000 <
b101100010 =

#250000
0!
0,

#255000
1!
b10000 (
1,
b10010 4
b101111011101011110 5
b110011000 :
b11110111001111000000000111000111011001110111111111011001111111111110000110001010000111001111011010111111001110100111011001000001010001110100011000100000010011001111010111101111010010110010100100001110011110011010101101011000110000101010010000100011111010000000110001111001010000111000011111110111110000000110000001100110111111000000100011010010100101111110001110101101000111001010101101011001000111000000010100100110101101001001100010000100111111011100100011010101001011110111101110010100100111110010010001101100100000110101001101101101110100000101011000111001011001011101100101111110111011101001001010011001101100101111111100001001101011010011111111111111011001010110010011101010111111110111111111000001111001000011100111000101101010000110001011000000000001100010010001101110011110 ;
b1100010000 <
b110011000 =

#260000
0!
0,

#265000
1!
b10001 (
1,
b10011 4
b101101101 :
b1001101101010100110111101111001100101101111111100110101110100000101011111111111111111000000111000000000111101111010111001000111110100011101001011010111101000001001011100111001100010010100001000111111110000011010000110001010100000011111011010001111110111101111011100000110011010010101011111001000001011101101000111001111111000110001000011011100011001011001011000000010101010001011001100010001011000000101111011110010100011010000001011101000000001001100011100111000000000111000100000100111000000001000110010011000010001100001100111000010100000101100011011000011010110101011100100100000000010010000100010000000000001101100001011000000000000011111011110011111111111110001101011000110111111111001110100110010000101100000000100100001001100001000000001001001101011011110010100101010011011110 ;
b1100010000 <
b101101101 =

#270000
0!
0,

#275000
1!
b10010 (
1,
b10100 4
b10101111011101011110 5
b101110101 :
b1111001110100010110101101000100100110000010111000011001111000000100000000101000001011101001000101010111001000101110101010010010011100010110001100000100001010101101000010011000111011000101101011100001000000011101001110111110001110001011110111100010011000100000111110111101110001100111101101111111101000001100001100010111101110011111111101011001010101001101111101111010010101111000101010110111000010111111101011101111111110000110110111100001100011111000001100011001011100101111100100000000110101110010111010101001101111100000001111001000000001010010010000000011101110001111000111010000000000000101001101010111011000110001000011011011100011110110110100000100110000111111100000010000000101001000001101000111111000000000000011011010000010000001110011011010011111001100100100101011110000100 ;
b1100010000 <
b101110101 =

#280000
0!
0,

#285000
1!
b10011 (
1,
b10101 4
b110101111011101011110 5
b110010111 :
b111001101001101101001000010111000001010001100111101000010011000100100010001111100110101111010101011011111001001101101111101011111010001001000111101111001111001110010101010000011011101010100000100010000000100100111001100010010001101001111011001101100110001100001101011100011001100000100011110011110101111111010111111011001111111110110110001110001101110101001010010000111111111111011011000010111111111110111000010011100100001110001001100010111111110010111000010100000011111111010010100011010000011010110000110011110111000011010000101000001000111000101110100011011010000101011100000011000000000000010110110110111111100010010000111100010011101110011110000000011101111110101101101110110111110111111000000110010111110101110110111110100001111000110101110001000100001010101111010011010001011 ;
b1100010000 <
b110010111 =

#290000
0!
0,

#295000
1!
b10100 (
1,
b10110 4
b1110101111011101011110 5
b110000101 :
b10111100100001010110000010011111001100010000100001010110111000010010110111111000000010011100110110000001010001110110001111110111101110101111100110110100101000010101001111000000101010000011110011111101101101111000101111010101111101100011100101100100011101110111100010011111011110111000011000001001100010001010001001010101100110011001010010000100000111001100111000100011100111000100000011010110001010111010110000001101011000101011000010010111000110101110101100010011110101001100111011111011100100010100011111111101111110001001000010111010101100111000001111110110111001011000101111001001110101100100100000111101101101111101001101010011100010110000011111110111111011000011000100111110111010010100010101111110011011010010000101111010010001000001000001001001010000000000000110100101001 ;
b1100010000 <
b110000101 =

#300000
0!
0,

#305000
1!
b10101 (
1,
b10111 4
b110001011 :
b1001111010111010010010111010001110011110001110011011000101010111011100111001100010111111101000111111000111110011110110100000111100001101101111101101111101100111101110010100110001100001110111111011110111001011111111111100101000001110110011000001111000100100111011010000011110000101000111111110010001000000101100111100011101101000000001100000111110001101000000000010001111101111010110100000101001001111111011100000010100111111111010001111010010001100101010010000111010000110000101100010101011100000101011000010101001101110101111110111110000001100111111101000010100011000111101010000010000011000110110111010001010101010101111101111100010000111011010011110110000000011111110111110101100001001101000010101101110000101100000001111110000000000011110100011101010000001000001001000000001001000 ;
b1100010000 <
b110001011 =

#310000
0!
0,

#315000
1!
b10110 (
1,
b11000 4
b101101000 :
b100010010010101000100010011001110101000010111000011111111101001101010110010011101101011010000111000100010111001001100011000001000111111011101100000100000001001111100111100100111010001111100000000000011001011111101011100110010011000011110111100001111110011100001111110100000010011101010110011011100000011000000000000010100011100100000000010000001101101111111001110100101100000001001111101001101011000011000111000010111100110011101100000001010111111011111100011100111011110111101111001111111000101110011110011001000000001011001010111100110011000001001011000111001111011000101110011000110011111111111011100010001111101100001010100101110110000111000101110110011100100100000000010000011110010000100100100000100111011101000000000001101100000000000000000000010000001000001000001100010000011 ;
b1100010000 <
b101101000 =

#320000
0!
0,

#325000
1!
b10111 (
1,
b11001 4
b1001110101111011101011110 5
b110100100 :
b10010000001100111100001111001110000010100001011100000010100000011000011101100110100111100101011110011011000010001111100111100001101100000011000111001111000011010001010011111110011000111011100000111110101100010000001101010000000000001111111101010110010011001000011001100111101101010110011000000000011000010101010101100100101111101100011011111100011010111000110011101011000001110111001000111101010111001110100011110111010001100110011110101100110110101111111001111011111000000100110111011011111111110001100011001110001011100001100111001110100110011110011111110111011001100111111111111001110100100011111111111111010110011100100111111110111000011101000001011010100000000011110111111100000000010010000011110011101111011100110101110110100111101101111111110011001111100010010010010111110101 ;
b1100010000 <
b110100100 =

#330000
0!
0,

#335000
1!
b11000 (
1,
b11010 4
b11001110101111011101011110 5
b101111001 :
b1000010001000100110001100010010101101111110111101110000000001101000000101111101010010101100111110010101100100011101101000111001010100111111101000001111101111111001111000101000111110111011111110010000000011110010011110111101110000000000010110110011011101100000000110000011110101110010000000111000001110101100000100000111000010101111100110010000111100000011101000000100110000110100000010111000010001000001111010110010001000000000011101000010000001000100010000011000001100000110001011110011010011001100000010000010010101000111000000100111010110001000011111111110101011011100110010010111110011001110100000111111111110010101000110110111011011001110001000000101111110000111100000100011101101011100011101001101011111111111011011111010001010111111111110111011100101000101100011010010010100100 ;
b1100010000 <
b101111001 =

#340000
0!
0,

#345000
1!
b11001 (
1,
b11011 4
b111001110101111011101011110 5
b110100001 :
b1100110110011110011000011010101011100011111000110110001010100110110110111111011100010101110010100001101100001110100111010101100100001110110101001011000011011110001111011011010010011010011111011111011001001111111011100001101000000110000110000011110001011110110100100111111001011111101111010100000110110100111001101111010101011010001110011111111111000011010111111101000001011110101000111100000001111010111000010000101100010110000010000111011011110000010000000100011111100110000001010000111001011000111100100000000011101010100000100110101100001111000101000010100010011100100101010110011001111011111001001010101100010100101100011011110111101101011111001111101111110000101000010001111101111110000000001010110101011111111100010101101111100111111111011100101000110110101110100010010011111111 ;
b1100010000 <
b110100001 =

#350000
0!
0,

#355000
1!
b11010 (
1,
b11100 4
b1111001110101111011101011110 5
b110010111 :
b1111000001101001000011110000010011100111100100101000100110001011111111000100010010110001011110100000100011111111010011011101110100101111111011001010010101100010000111010110110110010101000000001110001111000001110011010000010000001111010100110100001000110001001000001111100010010010110010101001111000000011110011011110011001111011111101000101010110000101111111111100000101010011000110011011100111101010100001111100111111011010000101110111111110101000011100000111001111110100110000110000011100001000000011000011110011101011111100110000001111010000001111100010011110010001101101100011100010111011111101110000010101100111110000011111111000001101110010111011111000010111001110100001111010001001111110111111100000101101110111110101111010111111111110100110100000111111000001000100100001000111 ;
b1100010000 <
b110010111 =

#360000
0!
0,

#365000
1!
b11011 (
1,
b11101 4
b11111001110101111011101011110 5
b110100000 :
b1011001100111100101000111110010000010001011010111100011000110100000101111011101000010100011100111111100011101110010111111110011110111110000101100010101000100100000111010011010100011110110011011001110110010011110111001101101111001111111000111000111110010110001111000000111010110001100100111100111101101101000100111011111011111111000000010010110110101111100000000111100001111110100111011000100111111110101000100010110011011110000101111111010110000010101001111111011111110000000100111100001111101000101000000111100000101110010001100000111110101111110101001101101100111111011000111100001011010010011111101100100001100000010100100010111001010110001011100110011011011110011001000011011100010101011111101101010011111001001001100101000001000001100001000110111111001001100101101101100001100101 ;
b1100010000 <
b110100000 =

#370000
0!
0,

#375000
1!
b11100 (
1,
b11110 4
b101101110 :
b1001000000111101001101111000110110001110110011111100101001011111000011101001011111101100111000100000011000010011011011101000100000000100000111010001001000001000101010010100010100101100001111010111010000101100001001010111000111010010010011000010000001001111011001111110100001001001011111100101000011010010001101111010011100001101110110000000111100010010110001110001000111110001111000000110000010011110001111000110011101000001000111111000001010100000111000011001100010010001111110100111000011010101110011110101101101011010100010010111101100111000001000010111100101001000000000001101110100000100001000101011110011111101001010111000100110011010011101000001001000001100111000000110010101001000010001000001111011111111100000011011001111111000110111010001110110101110000010111100001101111100 ;
b1100010000 <
b101101110 =

#380000
0!
0,

#385000
1!
b11101 (
1,
b11111 4
b1011111001110101111011101011110 5
b110100011 :
b1111001111011101111111100111100100010011101111000111111100001101100101001000100100100000100010110100000010001111000011110111001111000000011000010010111101100000110101100100010111100110010000100010011100111001110000111101100010010100100011101011110010000101010001111100111111101110101000100000101101100011111010101000101011110010111111000111101111001101000010010011010110001001000000100101010110011111001111110000101000111101110001111101011001000101001111010110001011110000001100011111101000111111010001111111111100100100011010000011101111010101000111010111110001100100011111010111111001001110010111000111111111111010011110000000010111111000011010011101010100010001000111100101110100001100001000110110010111110111000111111110000011011111110011110111111101001101101110110011110000011010 ;
b1100010000 <
b110100011 =

#390000
0!
0,

#395000
1!
b11110 (
1,
b100000 4
b11011111001110101111011101011110 5
b110000111 :
b1001111101100100010111010100001001010011100001011101010001011100100000001000101100100100010111010010100000011011011110111000111001011100001001000011000100111100100010001110011000011001110100001010011010001011111111110001011110100001011111011101000111101110100010011001101101111111000010011001010100000111111110011011001000110000000110111100100000000000010111011110100101111011000111101011010000101111111011011100001101001001100010000101110110001100010101100000100011101001011011111100101011000111111111110101111010111100111001001000110000000110100011100011111010001010010011111000100111110011000111110111000011110110000011000111011010010001111111111011101101001111110101000010010010010100111111100000110101010011100001110110001010101010001000000010000111011111110000010100000000010011 ;
b1100010000 <
b110000111 =

#400000
0!
0,

#405000
1!
b11111 (
1,
b100001 4
b110010101 :
b1010101110011100000010011101100111111001110111010110011101010001101111110101111111101110111110001110011110010000011111011010011000111101100111011101110010100011100111110001110011000000000101101000110101001001010000000100111010111110010000000110110001000011111011000100010011010001011100000100100000011000000101000101110010000000110110011110000110011001000000011101110001110101010100101101110011000011101110111100011011001110101111111111100011100010001001111111011100000000011110101001011101101011010010111101110101100110010100111110100101010000101101011110001101111111100011111101001111010011001100001110111100100001001101111000111101011111001010100001111111100000001000010110011101011110001000101111010100100101000100000101101000100001000010110000001010110000111010111111100111110011 ;
b1100010000 <
b110010101 =

#410000
0!
0,

#415000
1!
b100000 (
1,
b100010 4
b110011000 :
b1110111001001101110100110010100000101110111111111010010111110111101111111111111000010111011111000000000010011010110111010000000001110010111101001010000001100000000001110110110001100100000001011100110011001010010100110001010111100001000011110011001111101001001011000000101111110000001101100000101111011010100001110101010000011000010100111111011000011001100111010011001101001011000111110010000101111111111000110000101011011010001100001001010111110110100111001011100000111011110001100001011111010111111111011110000110110010110010111110011100110101110011101011100110010011111100001001110100111010111101010000001111101101111101011010101101101000001000100001001111010110000110100001111100110111110000001010010001101011100010000001100001110010111011111000011011000100101111110101111010100111 ;
b1100010000 <
b110011000 =

#420000
0!
0,

#425000
1!
b100001 (
1,
b100011 4
b10011011111001110101111011101011110 5
b1000111111111100011001000000101110111110001100101011110000011001110001110011111111110111101101100011111101011000111111100000110001000000000111101001101010100010100100101001100011000010000100000101111000011100000001100100011101101111000000000000100110001101101110111000011000000010010110111111000000001000010001001110111111101111001001010011011111111111101000010011100111111101110011000101101110111111110111111001110001101111011110000100110000101110111101110100111111100010101001110001111001101111110110000100001100111100001100100010111000001010110101001100010011000101111010101100011101110101111000100000110000111111010100010011110101001001001100010100011001000010101010011110011101100010011001111000011001011001000110111000100001000111111101110111111101001110011110110111100001110010 ;
b1100010000 <
b110011000 =

#430000
0!
0,

#435000
1!
b100010 (
1,
b100100 4
b110010111 :
b1111100101011011000010111001011110110110111101111111000010000110010101111111111110110001101011000000011111111001001100001111110001111111111000100101001111100111111111110111000011010000111111000101110110000100001111011000000011001101111010011100000000111111011000110111100000000010010000011111011010110101001000100011011011001110100111010111111111010010101111110000001111111101111100110010101011111101010111100001000001011100001011110110010010011101110010000110111010001001011111010000111010111000111101001100000010011110111010111011000101100000111101000001110010111011100000000001100110011101001000000001000001011100001000011100000101000101111001011100100111101010111000110110001101011111110111001110100000001000111100000011100010000001100100000000100001011010110111111111110101000000 ;
b1100010000 <
b110010111 =

#440000
0!
0,

#445000
1!
b100011 (
1,
b100101 4
b110000000 :
b101100010010100111001010111100001001101010010001111110100111000011111110000111110101101011100111111010100110110100001111111011110110111000100101011000000000011010010110101011001010110101100000100101011100100101011001011001111100111100000111101100000001010010110000110101101010000111101111100100101110000010000000111110010010000110000000010000111010010001101111111110011111111001011101111110001011001110010100011101111010100101100000001110001101101110100011000000111010111111100100001001011010110111111010001001001101001101010111001100110101001110110111100111000010011111001110100000001010011111111100111000001101100011100101101101001000110010011000100100110110101000011010011000001100000000010000111001000001010000000000001011100010111011111000010000001100101010101001100100011111000 ;
b1100010000 <
b110000000 =

#450000
0!
0,

#455000
1!
b100100 (
1,
b100110 4
b10010011011111001110101111011101011110 5
b110101010 :
b1111000010010110111000001011100001001011101100001000011100110011010010000001100001110110000110100100101110111110101100110110110100111011010011011001111011010001000001010001111101111010000001101010111010001101110111110110001010101010101110001011001110001001011101111001011111111000100010000110111001101011110111000011110011111010011100111001101110110010010111110101001110111011001000001101010111111111111001100100011000001000111111000000100000000000010010001010011101000010000001000100011111111101000001100100000010101111001100000010011100000111100001100111110011100100111101111111111111010111100001101010111111111110010101111001000101101001100111010010101001110110101110111011110001000001111111110101111011111111110011111111000010011111111111111111111111000111001000000011001111100011 ;
b1100010000 <
b110101010 =

#460000
0!
0,

#465000
1!
b100101 (
1,
b100111 4
b110001000 :
b100111001001101101101010010100001011111110111111101100110011001111110111111111100100111011111101010001110100100100111111000011101111000001111001111101010000010110101110101101010111110001000001100010100000101110111000000011100000110111110111101110011100100111110111101101000001010000001001100111000011100100000001110100000011111001001110100011010010001100001100001101010100010010010000011000101001011101001100000110100100000011010110000110011101110001101100111100110110111011001110111111100010001000011010100011101101011101001110101000001101011010011001011011101000011100001001111110000111011101001100001010010001101101110011100001000000001011001101001010010111111111010010100000001110001010010000001101010010100001011011100011101001111011111111100001101110111001000100010100000000101 ;
b1100010000 <
b110001000 =

#470000
0!
0,

#475000
1!
b100110 (
1,
b101000 4
b1010010011011111001110101111011101011110 5
b101111101 :
b1000100011110100111010010111011010001001111100101101010011111000000000010110110001011110010000000111000110100110101100010100111111000111110010100111010111011101110111001110010001001110010001011100010111101001100101111000100001001001100111010011011000100010101110111101101111001111000110101000111010111111011101010100111010100000010111111001111001011000000100110100001100001111000010000001000111000011110110111101110100011110000100000111100000100010100100001000011100000110000000110000111101110000010010110111000011100010100011100110101100001111111000100101110001101111101100011111001011101010111011100110101101010111011110111100100001000010101100000000000110110111101000010110110001111101111111110010111001100100101100010011111000001101000010000100000011010110000010000000100000000001 ;
b1100010000 <
b101111101 =

#480000
0!
0,

