mnist_verilog/project_1/project_1.sim/sim_1/behav/xsim/bnn_test.vcd
$date
   Fri Mar 27 21:02:24 2026
$end

$version
  2023.2
  $dumpfile ("bnn_test.vcd") 
$end

$timescale
  1ps
$end

$scope module tb_bnn_system $end
$var reg 1 ! clk $end
$var reg 1 " rst_n $end
$var reg 6 # sw [5:0] $end
$var reg 2 $ btn [1:0] $end
$var wire 8 % led [7:0] $end
$var wire 1 & lcd_cs_n $end
$var wire 1 ' lcd_dc $end
$var wire 1 ( lcd_sclk $end
$var wire 1 ) lcd_mosi $end
$var wire 1 * lcd_rst_n $end
$var wire 7 + seg [6:0] $end
$var wire 4 , an [3:0] $end
$var reg 1 - bnn_start $end
$var reg 784 . bnn_image [783:0] $end
$var wire 4 / bnn_digit [3:0] $end
$var wire 1 0 bnn_valid $end
$var wire 1 1 bnn_busy $end
$var integer 32 2 pass_count [31:0] $end
$var integer 32 3 fail_count [31:0] $end
$var integer 32 4 total_cycles [31:0] $end
$var integer 32 5 i [31:0] $end
$var integer 32 6 d [31:0] $end
$var integer 32 7 v [31:0] $end
$var reg 1 8 test_passed $end
$var integer 32 9 pixel_count [31:0] $end
$scope module u_bnn_direct $end
$var wire 1 : clk $end
$var wire 1 ; rst_n $end
$var wire 1 < start $end
$var wire 784 = image_in [783:0] $end
$var reg 4 > digit_out [3:0] $end
$var reg 1 ? valid $end
$var reg 1 @ busy $end
$var reg 3 A state [2:0] $end
$var reg 10 B idx [9:0] $end
$var reg 1 C start_latched $end
$var reg 512 D hidden1 [511:0] $end
$var reg 256 E hidden2 [255:0] $end
$var reg 4 F argmax_idx [3:0] $end
$var reg 25 G argmax_max [24:0] $end
$var integer 32 H ai [31:0] $end
$scope function popcount784 $end
$var reg 10 I popcount784 [9:0] $end
$var reg 784 J vec [783:0] $end
$var integer 32 K k [31:0] $end
$var reg 10 L cnt [9:0] $end
$upscope $end
$scope function popcount512 $end
$var reg 10 M popcount512 [9:0] $end
$var reg 512 N vec [511:0] $end
$var integer 32 O k [31:0] $end
$var reg 10 P cnt [9:0] $end
$upscope $end
$scope function compute_output $end
$upscope $end
$upscope $end
$scope task load_test_images $end
$upscope $end
$scope task run_bnn_inference $end
$var reg 6 Q img_idx [5:0] $end
$var reg 4 R expected [3:0] $end
$var reg 1 S passed $end
$var integer 32 T cycles [31:0] $end
$var reg 1 U timed_out $end
$upscope $end
$scope function count_pixels $end
$var integer 32 V count_pixels [31:0] $end
$var reg 784 W img [783:0] $end
$var integer 32 X k [31:0] $end
$var integer 32 Y cnt [31:0] $end
$upscope $end
$upscope $end
$enddefinitions $end

#0
$dumpvars
0!
0"
b0 #
b0 $
bz %
z&
z'
z(
z)
z*
bz +
bz ,
0-
b0 .
bx /
x0
x1
b0 2
b0 3
b0 4
bx 5
b1010 6
bx 7
x8
bx 9
0:
0;
0<
b0 =
bx >
x?
x@
bx A
bx B
xC
bx D
bx E
bx F
bx G
bx H
bx I
bx J
bx K
bx L
bx M
bx N
bx O
bx P
bx Q
bx R
xS
bx T
xU
bx V
bx W
bx X
bx Y
$end

#5000
1!
b0 /
00
01
1:
b0 >
0?
0@
b0 A
b0 B
0C
b0 D
b0 E

#10000
0!
0:

#15000
1!
1:

#20000
0!
0:

#25000
1!
1:

#30000
0!
0:

#35000
1!
1:

#40000
0!
0:

#45000
1!
1:

#50000
0!
0:

#55000
1!
1:

#60000
0!
0:

#65000
1!
1:

#70000
0!
0:

#75000
1!
1:

#80000
0!
0:

#85000
1!
1:

#90000
0!
0:

#95000
1!
1"
1:
1;

#100000
0!
0:

#105000
1!
1:

#110000
0!
0:

#115000
1!
1:

#120000
0!
0:

#125000
1!
1:

#130000
0!
0:

#135000
1!
1:

#140000
0!
0:

#145000
1!
1-
b111111000000000000000000000111111111000000000000000001111111111100000000000000001111111111111000000000000000111111111111100000000000000111111000001110000000000000111111000000111000000000000011111000000011100000000000011111000000001110000000000001111000000000111000000000000111100000000111100000000000011111000000111110000000000000111100001111110000000000000001111111111111000000000000000011111111111000000000000000001111111111000000000000000000011111111100000000000000000000011111000000000000000000000001111100000000000000000000000011100000000000000000000000000000000000000000000000000000000000000000000000000000000000000000000000000000000000000000000000000000 .
b0 5
b0 6
b0 7
b10110001 9
1:
1<
b111111000000000000000000000111111111000000000000000001111111111100000000000000001111111111111000000000000000111111111111100000000000000111111000001110000000000000111111000000111000000000000011111000000011100000000000011111000000001110000000000001111000000000111000000000000111100000000111100000000000011111000000111110000000000000111100001111110000000000000001111111111111000000000000000011111111111000000000000000001111111111000000000000000000011111111100000000000000000000011111000000000000000000000001111100000000000000000000000011100000000000000000000000000000000000000000000000000000000000000000000000000000000000000000000000000000000000000000000000000000 =
1C
b0 Q
b0 R
b10110001 V
b111111000000000000000000000111111111000000000000000001111111111100000000000000001111111111111000000000000000111111111111100000000000000111111000001110000000000000111111000000111000000000000011111000000011100000000000011111000000001110000000000001111000000000111000000000000111100000000111100000000000011111000000111110000000000000111100001111110000000000000001111111111111000000000000000011111111111000000000000000001111111111000000000000000000011111111100000000000000000000011111000000000000000000000001111100000000000000000000000011100000000000000000000000000000000000000000000000000000000000000000000000000000000000000000000000000000000000000000000000000000 W
b1100010000 X
b10110001 Y

#150000
0!
0:

#155000
1!
11
1:
1@
b1 A
0C

#160000
0!
0:

#165000
1!
0-
1:
0<
b1 B
b1 D
b101101101 I
b1101001111001110001000000100011111100110110000000111010000000000000000011000000000011011000000000010111111000110100000010000000001010100011000110000001011000000001010010010000111111100010010001001001001110110100111111011000011110010101010101111100001100010111001011100001111000011011110010001111111000100100011111110000001111101011001011001110111000101110101101110011001001010011111011000001110000011010111111111100001111001000001001110111101100000110111111100101111001110110010110001110100000001100000000011010100111100000111000000011101001110110100110000100000110100110000000100100000011010001001111000110100010001111111110110111100100001010111000001110011100001000100011000100110010011001101011000111011111111010000000101010111010111110111011010011101010000000101100111110111101000 J
b1100010000 K
b101101101 L
b0 T

#170000
0!
0:

#175000
1!
1:
b10 B
b11 D
b110101101 I
b1000001111011001000011011100111111111111111111110110111110110101111111110111111001000011101110011111010011101001011111010110101101111011100010111010101110101001000000101010110101010010001010100010101111011011001010101100101110000001101001000111010000001110110010011111001101011111001000000000111010111101001101100010100101110011001011101101100000010000100010010000000101001011110001111001011100011100010001101111100111110000110010110100111110011100101010010001111111011111000000000001111111111100111010100000000011111010010110111101100000001010100000110010001000001000110000000001100011101011110111100000011001001111011110111110000110001111100110111110101011101111000110111111011110111010011110111010111100011111100010111101000111110111110111101111111101111001101111001000010100100000 J
b1100010000 K
b110101101 L
b1 T

#180000
0!
0:

#185000
1!
1:
b11 B
b101111010 I
b1000011111111110001000110010111001001000010001110000000101110010010110001100000010110001010000111100100100000011000001000000100000101000011001001010000010000101000010110100001100101000011111000011010000100110001010101000010001010111110011001011101011110101001010111001101101010011000011010001001111001110011100000100011001110100001010110000000000001100000101011101001010000100001001010000111100011000100001111111101100101011100101001111011000111000110101000100000011101110111100001110011111110111111101010101010110111010010110011110101110110011110000001001110111110101001101000111011010101010010001111101110110111001111100110111100000001001011111111001101111100011000010100111111010010000010101011011100101101010000010110111010100110111110010110000110110000101001101011110011010111111 J
b1100010000 K
b101111010 L
b10 T

#190000
0!
0:

#195000
1!
1:
b100 B
b1011 D
b110010001 I
b1101111101111111100100100101101001011101110111111001100111110101100001010001111111100011001010011010111111100010000001111010000001111001101100000011001101101000001001011001010110101001100001110001100001111011101000100011010110000001001001011100001110011001000000111110100000001100111100000110110101010010100100011000000101100010001100010001101101111111100000111001011110011111110110010111110000110111011011000011111111111101111011011110000100110101111101100111000101000011100011100111011000001100100100110010001100000011101001110110011011001111111001000111100111111001111111010011111100011101100011111010101100001110110000001111100111000100110011001011011110000010010011001011001100000110111110101011000000000010011001001101010101001001111010110000000000010001011101101010101001101 J
b1100010000 K
b110010001 L
b11 T

#200000
0!
0:

#205000
1!
1:
b101 B
b11011 D
b110100010 I
b1001010110001111111111000101100010010111111001010110101100111101111111011001001101100111111011111000101110011011000111011000101100100001110010011010100101111101000011000001101010110011111010101110110111011111001111110100010111011110101000001110110111111101010000110011101000110001111100101001001100111110101010110100100100100101100111111100001110011110101110110010011000000111101101110111000010001000100111111011100100001001110101011111101100110100100001100111101101110011110110001010100001111111011101011000111110001011100101011000000011000000001110111101111001000000010011011011101111111110000000101100101101111000001110111010110011000011101001110100000010110001001111010111100000101110111111001110000111001101001100100000101010000100010001000000110100101010100000011000011111010011 J
b1100010000 K
b110100010 L
b100 T

#210000
0!
0:

#215000
1!
1:
b110 B
b111011 D
b101111110 I
b1111010100100000000000000001101110000001101100000010001100100100100111010000001001010000100001101010000000111111111000110011011110010000101100000000111111110010001010011101100010110111000110000010100011000111000000000010000010100000111100011110001010110011100010011111110100110111010101101000000000000111111101011111000110000011011111000100111100111100000101111100101001010111010101100110101000000110101101111000011110010001001110011111010101111001001111101011110100111011000111111100011100111101001100100011011111110011111000011000000111001011011110000001111011110110011110111100101111011010110000001100000110101000100100101000101100010111111110001001110001011101011101011010111111111100010010111010010100000100001001100010111111100000000000000100010101001111101101101110100001000111 J
b1100010000 K
b101111110 L
b101 T

#220000
0!
0:

#225000
1!
1:
b111 B
b1111011 D
b110000011 I
b10110111101111100010000001100011110110111111111111000000000111111110100100110110000101111111111111110000111011011111111011010011010110100110011000011001010111000000110001000000000000000000001011101000100100000001110011100110000010111111000111100010001110000111011011101101101100011010000100111100110101001101010010110000110011100100010101101111101000101110111011000011000111100010010110011001111110000100000110100100110110000100110001011110101010001001101011001111001101100011100101101011000011110100001011000001000111101111110011101011110010000010111111000001111011110000110101011101010010011100100100111001100011110100111011010110011000001101010111001000100100000010111100001011110000100000010001110111000011000100110001010111111101100000001101100100101001100100001011001001010010 J
b1100010000 K
b110000011 L
b110 T

#230000
0!
0:

#235000
1!
1:
b1000 B
b110111100 I
b110001110101111010110011011010101001101000011001100001110110000001111111011100010000111111100101010101010010011111111111101111111010000110010111101110100011111111011010111111110011000100001100100110101110110111100001001111011111100010011010000111111101111001111011010110001101000001111000011000100110110110010110010111000000011111101011110110101000010001110111100110100001000010000111111111111010101110010000101111011111101010011000000100001001110001001001000000100100011111010000100001111100010011011111000100100111101100000111101000011101010101111010011111101000010001101000101011110010000000100111101011001101111010001001111101100011111110111000111110111011111111011010100001111101111111011111100011111111111011000100101111110000111111111001001111111101110101010011111011111010001 J
b1100010000 K
b110111100 L
b111 T

#240000
0!
0:

#245000
1!
1:
b1001 B
b101111011 D
b110011111 I
b1000000111001011111000010010010000000010100000100111000011010111001110001001010110010110110111111101110100001100000011111110001001110001011010011111011101111000100001001000111000100011011010000111101001001110011000001000011100110001011000001111100011011101000001111101101111111110001000011111111011111011000110100000101101101011101010110000111101111110011111111110101010100011100011100111111110000100110110001000011011010111110111101011000001101001001100111100001100100101100101111111011111110000010000110111100010000111100001000110011111010100111101000110000011111111001111111000111001101011110101010001100001000011101111001000100100111000010111111100011001100011000111100101110000000010111101010011000101010011111010101110010000011101110001110100111101100011111111110111110010110110 J
b1100010000 K
b110011111 L
b1000 T

#250000
0!
0:

#255000
1!
1:
b1010 B
b110001111 I
b1001000000011001010000010100110100000000000010100010111001110111010010110001100010111011111110100110010111000001010111111101101110001101011111001111111101100100111110111010111110000101000011011000110111110001100011100001011001111101010100001011100011001001101001110010100011010010010111001100111100101001101101100010101001101101000011101110011001001100101010011100111000111010111011111101101011100010011000100110001011111110000001000000101000000011111001111101000001101000001001110001111110100010000101100111100011101110010001011001111111000111110000111111110010011011111011100000111100101111110111011111101000010011000001111001100110000111101001011000111000100000101101011001111100011100001110000011010011000110111001010101011001000010000100000000000111111011110100101000010110110111 J
b1100010000 K
b110001111 L
b1001 T

#260000
0!
0:

#265000
1!
1:
b1011 B
b101101011 I
b1111100000001101100010011011110111000011000101100101001001000111101010000000000110100100111011110000000000000011111111111111000110000010100000111111001001111110010101001001110001111110111110011110011110110110101111100101110111101111111011001100001000001010111001111011001111111011100000000111110001000101111011100010100100001100000011001100011010111111101000000000111101101011000011010101101101001111000101110101011001000001010001010001000110100001000000100111111100001111110001001010000101110000011111100010000100000110110111000001000011110000001010000000000011111111100001111101000001000101111001101011011000001110011101000000011011000000101001000000000010101000100101001000000001110100000000010111110000000000100000001111011101100000001001000101100011010000100110011110011110011111 J
b1100010000 K
b101101011 L
b1010 T

#270000
0!
0:

#275000
1!
1:
b1100 B
b100101111011 D
b110001001 I
b1011010111111011101110001110010000000100100101111101100011101000000100110000001101010110000000100010100000000111111100000111111110000000001111010001010111001110010111001001010011101111011000010111111010011010100000001001010011101111111100110001011110000101111011100001100011011110011111011100111111101111110100100000100111010000011101010100110110101110010001101111101110011011111011100011011110111011111111101011111100001111100111000101010110010010100111011100111100000000001110111101111110110101000100101110111000110110101101000100001101101011010111110001010100101110100011010110000100010000001110110011000100000111000000110100111111110100110110011000001010000110010000100000111000011100000000010111100010010000000010110110001001001000001101001011001111110000111101010001000100000110 J
b1100010000 K
b110001001 L
b1011 T

#280000
0!
0:

#285000
1!
1:
b1101 B
b1100101111011 D
b101110111 I
b1001000011000101001110010000010001011100111101000110100100111111111000111001001001111101111110011000100110011011010100110011111111001010100111010010110011111010100011101000001000001111111110111101001110000001101011111000001000000010001001011110100001010000001011100001010111011000001001001111101000110110000010111011110100000101100010000010101000101110111001110111001010101011101110010111100111010100011001011011011010011101111000100101001001111000011101101001110000001110000110000010101101100000011100010010111001100110000000110001111001100110111101010111000010110000111001111001010001001110101001100111110011111110000001000111011111101011110011001011110011011100100100001011000100000001110010100101010011001000000000001110010001101000000000000000000001000111111110011000000101011010 J
b1100010000 K
b101110111 L
b1100 T

#290000
0!
0:

#295000
1!
1:
b1110 B
b11100101111011 D
b110100101 I
b1111111011111101011011000010010111111111101101111110111100111111111110111111011101001101001000111001110101100100110000100111000011110010001110010000000000001110101100101001111011001100111110110101001011101111010001111100000110110000001101000010100000010111011110110111111111011000001111111101011111111000110011101100101101111011110010010010010000011101001111100100000010000111110000011010110010011000011100000111100011011001001001000000100000011011100111000100010011100010111000111010101111011110001000101101011001010100100000100111111100000011001000010110110010000111011000011100000101101110100111110011011011001000010100010011101010001111101111010111001010100111101101101100110111010000000111100000011101110111111111111111000110100101100000011110111100100000111111101110110110101010 J
b1100010000 K
b110100101 L
b1101 T

#300000
0!
0:

#305000
1!
1:
b1111 B
b111100101111011 D
b101111110 I
b111000110111010100001101100110000000001000001111010001000000000000011111010010110110000001100111111110011000101100000110111111111101111110000011011111010100011111110010000110010000111111110011111011101110111011101001001110000010100110011111111000010001011000100010101111011000110101000010011111101001100000011100010111111111101100010001100011101000111011011000101010101111111111000111011101111000000000011100110111110111000000001000000110000010000001010000111101101001011100010000010101110000000001110001001010000111100000011101101110001000011101000110000100011001100110000011011000111001010100011110000001101110000001001100111011100111110111000011111111010110111010101000000100000001001110101100110110011111000010100100110110100100010000011001100000011011011000100001011101011111111 J
b1100010000 K
b101111110 L
b1110 T

#310000
0!
0:

#315000
1!
1:
b10000 B
b110001000 I
b111101111111011101111011100000001001001101110111001000110011111010110011000110010001111111000010101111100000011111111010101010001100001110001111101111100001000000111110101010001110000000000001110101010100101110000011111110001110110010111100110010011011110001110111011111010110110111100110011000110010111000111110000011100010101010010100111101111100001010000110001010110110000000111101010001110111000100010001101101001110011000110110000000100001010001110010010001000000101001111110010001111100000101000110110010000111110001101111111101011010001110000110000110101110100111110000011100001001110111011011100111011100111111101000001111011101100011110101001101100010010110000001111110001111001000001010100010111101000001011000001100000100001001001010000000101111000001000100111000111101100 J
b1100010000 K
b110001000 L
b1111 T

#320000
0!
0:

#325000
1!
1:
b10001 B
b101110000 I
b1001000000111000000011101001011000000000010000000001100011101000000000001111000010101111110100011010000011001011000001001110110111010000100101101001001111000011001010111111101100001010000111101010101111110000100000000111111011011101101101000000011000010011001101010001110001001000101111010001100000010001101001111010010000000011011111110010100010111000001111110001011000011000000100111000000000111001010101111011110000101001010111000111011110000001011100010001110000100000000100010001111001101101111000100000011000110111100111001001101000000011101000011001011110000101110100000110011000111111100001100111000110010000111111111110000011000001101110111011000110111111111000101110000000111111111111101110100011100011011111011000100000101111011111110111000101000110010011001111000010101101 J
b1100010000 K
b101110000 L
b10000 T

#330000
0!
0:

#335000
1!
1:
b10010 B
b110000111 I
b111100101111000100100011000000000000101000110000101011011000010011100001011110001001111111011011111101111011100100011111011000000011111111100100100100001000010111111010100100110100100011001011101101000001010011011100111100010001011000101110010011011011011001101001000000001111100100100110101010000100111011110010110110010111001010011001101101101000101111111001011010101101010101111110100011000101110110100110001101111010111010000111101001010000100010000111011000100101000000100000011000111100000100001110010101011011101001100001100111100011100101010011000010001111001000101011000000111100010000100110000110001000110101111000110100011100010100010111111111100011111111100010111001111101011011110001110000100001100001101111101111001101110111110111101101110001110000000001100001110111100 J
b1100010000 K
b110000111 L
b10001 T

#340000
0!
0:

#345000
1!
1:
b10011 B
b1000111100101111011 D
b110100111 I
b111101101111110010110111101101011001001001000010000011001000010011000100011010000100111010111101111111110110001101011000111000000111101111110111101111000000000101011011100111110000010110010010100111111110010010011101111110111111111011010100011100010101011010100111011011110011111100110110111001110111010000010001101011000100011111100011001111111000010011100000100100011011110100000001000001101000011111000010111100010100000010010001010110010010100100001111010110110001000111001011000011100000111111101000101101111010001100111110011110111110100000010111111101110001000100100010011101111111010001000110011111101111110011001001000000000000101101001011110010011001111000110001011011110111111111100000001111111111111111101011000010111010110011111111011000011001111011110110010101011011001 J
b1100010000 K
b110100111 L
b10010 T

#350000
0!
0:

#355000
1!
1:
b10100 B
b101111111 I
b10000101101111010010001001111110100001100111011111100000101101000000100000111111110001011000001001110000110100000011111110111001010001010110111110011011101100100001000101110011111101011001010000011111111111110001010100111011111110111011010001110000101011111111111011101011001010101110011000011101001000010011110101100101010101111010001111101100000010000010110000111110100111101100000111100001111001000001110000111100101111000001011110001011000001011111000100001000000111001001011001110111110000101011110011000100111110000110001110001110101111111000101000111100101110101001100011000001000001101001110110110000000100100011010000100011100000011000001100011010011010001010111010101001101010000001001011101100011000000000010000001111001000001110100000111010010001011010110100010111001111 J
b1100010000 K
b101111111 L
b10011 T

#360000
0!
0:

#365000
1!
1:
b10101 B
b101110101 I
b1101000101000100110010101000010001000111011110001111100010111110110101110111110100110000011111100111011110111011011010111101000011000000111100111010111100011111000000101101010000010110110100000000010110010000011101001000101101011000000011101100101000000000000010011011100101101110000110000001001010000010100101111100001000001001101110100111101001100010111110111000010010010100000001000111111011100110011000000000011110000100110110010000000111111000110100000011001010011111110101111110110011101010101110000011001011111101101010011000110011000110100010001011000100100011011000101101100000110010000000001100110011100101000100011011111110001000110000001011101010110101111001011001001111110010100100111010110011011000101010110011100100001101111011010101110001110100001001011010001011001110 J
b1100010000 K
b101110101 L
b10100 T

#370000
0!
0:

#375000
1!
1:
b10110 B
b1001011010110000000000000101001011000011000001000100001111010001100101101100101101010110010101101110111010010001101001001111011010111100000110100000011100011000011111011100100000000010111011010111110100100010000111000110110111000110110000101010001110100100001111000110001101111100010100101101101100101111001001010100011111000111010011110001111011100000001100001101010000111100100000010000110101100110110000001100000011101110000111100111001110100110011000001110100010111000101000110010000000000111001110111101111111000010001111011000010001011111110100011111110101111010011111000100111111100111100000000110001111111001011100001001010001100111011010110010110101100010100111000000100000001001101100100100001111111111111000001010110101000010110100011001110100100000110101000010011110100000 J
b1100010000 K
b101110101 L
b10101 T

#380000
0!
0:

#385000
1!
1:
b10111 B
b110010001 I
b1001000000001111000001000000101001110010111011001000000111101110000011010000011011010100001011000001111010111111111111110110100100111100101101100110100011100011111110010101111000101110110010001101011010010101001001001110010011111100000000011100100111110111000011111001010011000001111101101011111011101101010100110111001111101000111010011011011000110010011101111111101001000111010010111001001010110110111010000111011000100001111011101011000110100010000100001101000011011110011000001011000100000111111011010000000000000010010110010010101101100100011100011000011000011011110010010100100111101011010011111000110110010101111011100011100001011001111111010000111100110000010011100111110000000011000011011111100111001110011101110101010001101100111001111100111000101110100100111110101111001 J
b1100010000 K
b110010001 L
b10110 T

#390000
0!
0:

#395000
1!
1:
b11000 B
b100001000111100101111011 D
b110000111 I
b1100100100011000001101111000000100000000000001000011011011001010000001111111111010000010110010000101011110000000000000010111100011110111010011010001011111010011101001011100000110100111110111111101111001111100111111000101101001001111010000110001000110011010101100110010010001001100110110000101001110011001111011110000010110001001001111100111101010001001001111100110011111011100111110111001100011001110011010111111111010010011010000110101010110000100100000111111000001010000000000100100011011100001110111111110100011110110000000011100111111000111111000100001100100100011101011000010101110000000100011010110110000010111110011111011000011100001011011101111111100011111101011001000010110001110011010101101011011100100100001011001011111111101100110100011010111001100100010001010100100100010 J
b1100010000 K
b110000111 L
b10111 T

#400000
0!
0:

#405000
1!
1:
b11001 B
b101111110 I
b1010111110000100100100011111000100111111111011011110010110100011110011111001011100111100100000100010000011111110101000100000101010101000001011100000001111111111010111100001010001111111111100010010100110001111111110010111111110000001011100000100110111001110011001100101010110011100011000000000111110101110110010000010000111100100011111010110101100010110010000011001111111000100010000000110101011110110000011000111001101011100101010110010111101111101000011100011000101101111101010101000010000001100100000101011011101110000010010001101100100110111110001000000000000101010010000011101110111110001011100010110101111111100101101101111101100111110001100010010011110001100010111000000001011111000011110001110010110011011100000001000010100000010000000010000000111001111000011110011000000100100 J
b1100010000 K
b101111110 L
b11000 T

#410000
0!
0:

#415000
1!
1:
b11010 B
b101001011 I
b10010100100101110010010001010011111110111010111110101000101111101101111111111101011001011100011101011011000110000011110000000000010001001000011000010111111111100000010011000001111111100000101101011000000101000110011111001010100001000011110000010111110010000110001001100010100000000000100111100110101011101000000011100000000011100100010000011111000001001010010100000001011110100000110001100100000101000001110000000110010000010000100111010000011100110011000110000110000000000000011010001100000001000001100111111100100001001000000011011111101010101001100000000111111110011100011000000000000001111110101000100001101010001111010001111000000000001011111110000011000000000001011000010001001011001110011010100101011101010000001111000000000111011110111111011010100100011000110110001000100001 J
b1100010000 K
b101001011 L
b11001 T

#420000
0!
0:

#425000
1!
1:
b11011 B
b100100001000111100101111011 D
b110011110 I
b1111111110100100110000000110110001000001111111101010011110010110100011111111111010110001000000000111011001111100100001010000000000011111001111001010100010111100100011010001011101010101001101111111100010010111011000011011101100100100110101111111100011110110010111101100001110000010000011011110101010111000101000000101100111111111100000101000100010101111111110001110100000101100101110001101111001000000010110111000000000001111000101001011000001111110100111111000011101001111011011110111001110001101101101011111111010011111101010110111101100110010101001010110011001011000001101000101111001100110101111100010111010101101000101000001101111111111001000110101100110000000001110010101010011000111100100110110100011101111010110110110010101000111110001111100001101010101100001100111100110110011 J
b1100010000 K
b110011110 L
b11010 T

#430000
0!
0:

#435000
1!
1:
b11100 B
b1100100001000111100101111011 D
b110010001 I
b1110001100110010001000101111111000000110010110111110010101111010111110111011110001011011110111111000010001011000001111001110010100000101110101111010111001111000100000111001110100010000111011111101100001011101011011011110100111011010000001110100001111001000110100001100001110111100001100110110000000101000110000100000000111110011100011100111000100111111001110000101000110001010110010111001011010011010000111100011001010000011101000111101000000101010001011000001001010010111101100111101110001110111010100110000100111101111111000101100110001001110111101101111100000000000011100000111101111010011000000111101001000110010001100010110111111111101001101110010010110101111101100101111111100101011100111101000110110110010001101111101000110010011110010001010001100100000111100001001011000001111 J
b1100010000 K
b110010001 L
b11011 T

#440000
0!
0:

#445000
1!
1:
b11101 B
b11100100001000111100101111011 D
b110001011 I
b1010111000000001001000011001000111100110000000011111001000000000010000111001001100101010010111101010000111011100001001101111001010100100011111100111100001110101010010100111111110010011011111100100010011110011110001100011110011100101110101001111100110110000011111111111000010011100000001100100010100001111010010001011000111100010011101010100011001101110000111010111101101001101011011101111111110010110001111001101001000111110010011010001001000110111110000110111001110001101100010001010100011111100110110011000110110010001110101000100100011111101101111111111001111011010011110000011000111111001001100010000111100100100101111000000000010100100011010111111110011111101111111100111011100000000000011100010100001010101111000000010110001100011100001100000100000100111110001010011110011001101 J
b1100010000 K
b110001011 L
b11100 T

#450000
0!
0:

#455000
1!
1:
b11110 B
b101111011 I
b11111111100111110100000111010110111000101100110000011111001101100000011111111001111010001000110011001010000110000000110110111111011100001011100010011110011000110101001000000110111101010101000010010100001011001000001001001010100000011110111011010001111111100011101100111111010011111100000100101111000110000110111011011100100100010001010001001010000000000000001000001010110010000000111111110001110001101000000111011110001011100111110111111100110000000110000111110000010111111000000101010000000001001101100001001011110100000001100111001000001000001011000100101110001110110011111100100100100000001111100100001001100010100111010011000010111000001110001000001100000111011101101100110011011111110001111011011111101001011111001111101001010011101110110100110110110001111011001011110000001001 J
b1100010000 K
b101111011 L
b11101 T

#460000
0!
0:

#465000
1!
1:
b11111 B
b101101110 I
b101101010011111010111011011001011111111101111111111101100000111111110001110111110100100011101000011000010111010011110000000001100011011000101100000000100100001100101000010000000011110001110100111010111001110001111101011011000010000010001110010001111111100000010010010001001111111111000010000110010000111000011000011000101011011001101001010011110101000101110000011110001100000100000100100001110111100110001110010100110101111111011001100000001001010001101001000001100100100000101111111100011011111010001111111011100010000000001100011100100110001011011010010100100010011100011000010010000100001010010001001000000100010011000110010001000000101100001100000001010000000011100001101000100011101000100010000010110010001001010111111000011111110000111011110110010011110011111111011101111001111 J
b1100010000 K
b101101110 L
b11110 T

#470000
0!
0:

#475000
1!
1:
b100000 B
b10011100100001000111100101111011 D
b110011101 I
b1100100000001010101100111111101110000100000101100111010101001111111000111100101010110000111111110110100001100100011110101111100110011101111111111001011101111111001100000101000110001111111110001110110001100001111101101000000101000000100011100111100000110001001000101011100110100010111011000001111100011001111101001011100100001111001010100000011001111010110000011011000011110111100010100111010010100000011101110010011010010111110001100111011110110011111110111100000010110000000111111111111010100110100100001111111000001000011100010110111110000111100000101001010111100000101111000010100111100011000010011010111111000111000100111011101001111100001001000011111111111111110111101101100000001111111100100010010011011100001000010111111000101001111001011100101001000010101110100010011011111001 J
b1100010000 K
b110011101 L
b11111 T

#480000
0!
0:

#485000
1!
1:
b100001 B
b110011100100001000111100101111011 D
b110100010 I
b1100111110011111010101110000110111010100100000101100010001001010000011001010010010101111010000000111101001101110100001000000001000111110010100001110010011110000111011000111101111110111000011001100111001111010011100010110111011111001010100100100001010011111110101011110000000111011110100010010011000100001011111100011110011110010111001010100100111111100001001010111001100011011111000100100001100111100110011010101010001111011111111001110111000000111000110001101111111001010001010000100011000111101000001101000101111000011110111111110001000111010001111100111110101110110010000110110001010110001011010100111110000110000000110011110010111001011101110011011110001101011111111100000100111111000100011110111011111111010111110011000101011100111101110111001111110011011100100000011100111010101 J
b1100010000 K
b110100010 L
b100000 T

#490000
0!
0:

#495000
1!
1:
b100010 B
b110011100 I
b1110110101011010110001010010001101101001111001010100011000011000000100011100011101100101110000001111110011111000010110001110010000001010010001000000100011010000101011110100100001100000101011110101101110001001000011110100100110101001100011101110010011101111110111001100100100010011100111000001101100100000001000111101001000000000101010010110100011101000110101000101101110001010110010000111011010011011011111110010101111001101110001011111111111111110110010001101010111010011100011011100010111011111011111000000111110010001110101001001110111001101110011011101001111111000100010011010101100110111101000100101000010010010110000000010011111110100001011100100111100011110101010110111001100011111111111101110100011111101111111011100111110100101111111111111010000010100110010111001001001110111 J
b1100010000 K
b110011100 L
b100001 T

#500000
0!
0:

#505000
1!
1:
b100011 B
b110010111 I
b100111000010110110111000111001011111111111011111110001000010011000111001111100001100001111001100100011111101111111101010100110110110010100010000000010010111101100111101010001110110000110100011110101100010010011111110000101100011001110100000101100001110100010100111010110000000011010110000000010010100100111001011111110111101111011001010111001111111010110001101111011000000001111101000111110001011001100101000101011110111100111010011000110001101100101011110111011100000001101000100001111000110000011110000100000011000010101111010011000110001100001111001110001011100000000001111100000001111110000000101011010010111001010110000010010110101010011110011010001101101010011111010001101110111011101111001010111111111101111011111000100000111101010110000111110111010000001001100011111111110001 J
b1100010000 K
b110010111 L
b100010 T

#510000
0!
0:

#515000
1!
1:
b100100 B
b100110011100100001000111100101111011 D
b110100111 I
b1011011111111110110101101010010000001010111010000100111100000001010001000100010111101110011111011011000110110001110001000011010011101001111011110110000010100001000100010100001000000001000011111001101100000010010101110100000010110100000000101010000101110110001110100110000011001011001110111111101000110111111010111101101011100110011011111011100111011010001010101001110000000000001001111101010011111010000101111111000010100100010011110000011110101110101011111110011110000001101011001101100000100000100100000011111111000011101111100010001111101110111011001100000001111111111100100110101110001111010111110010001110111111111100001100111000010001111111111100100001001111101101111111111111111101111100110111111111111011100110010100001111111011110110110111101001110100001111101010011111 J
b1100010000 K
b110100111 L
b100011 T

#520000
0!
0:

#525000
1!
1:
b100101 B
b101100000 I
b1111101000011111010101010011001100100001110101100100011100000100100000101000001001110000110000000010000001100101000011001001000010010001100000111010001010011010011000100100110001001011111001100110001110010111000110100100001001111001001000001100110011000101010000011100011001000101001001000001110000000010011110001010111111100000010101110010110111001110101010010101111100101011111000000001000001110111100010000011000110001101100010001110000000100000000001110001111001111000000101001011110011100111011110000101010110011111100110101000010110110111011000110011101011111001100101101111101010011101000110000110111101110110100110010000011011100010010000010110011111000010000010111100010110000110000000011010101110000111111100000110010111111100100000001011000011110101001110010100100011010 J
b1100010000 K
b101100000 L
b100100 T

#530000
0!
0:

#535000
1!
1:
b100110 B
b10100110011100100001000111100101111011 D
b110010100 I
b1100011101000100000011101110000111111111111111111111100100001111111100111111111101111010111111111110001000111101110111010110001000011100101111011000100111101000111010100000001001110100011000001110011000001101111011111010011101000100100111101111110011100100000111100111011010000010011000110101111000101010001000000111110011110000110100100000011111010011111001110001000001001010110111000111111110101100100000110010011110000011010001100010101001111001110111010001001111001100101110110110100101011001000100010101111100001000001011101001011111000011001010011101000001101110001110000100100001111111011000100000110101111000101000011011101010001001101100001101100110101000000011010111110111101101110010100110111011011000000100101100110011100000000001011101001000011101000001110110100100001111 J
b1100010000 K
b110010100 L
b100101 T

