mnist_verilog/project_1/project_1.sim/sim_1/behav/xsim/bnn_wave.vcd
$date
   Fri Mar 20 18:24:04 2026
$end

$version
  2023.2
  $dumpfile ("bnn_wave.vcd") 
$end

$timescale
  1ps
$end

$scope module tb $end
$var reg 1 ! clk $end
$var reg 1 " rst_n $end
$var reg 1 # start $end
$var reg 784 $ image_in [783:0] $end
$var wire 4 % digit_out [3:0] $end
$var wire 1 & valid $end
$var wire 3 ' dut_state [2:0] $end
$var wire 10 ( dut_neuron_idx [9:0] $end
$var wire 4 ) argmax_idx [3:0] $end
$var wire 25 * acc0 [24:0] $end
$var wire 25 + acc1 [24:0] $end
$var wire 25 , acc2 [24:0] $end
$var wire 25 - acc3 [24:0] $end
$var wire 25 . acc4 [24:0] $end
$var wire 25 / acc5 [24:0] $end
$var wire 25 0 acc6 [24:0] $end
$var wire 25 1 acc7 [24:0] $end
$var wire 25 2 acc8 [24:0] $end
$var wire 25 3 acc9 [24:0] $end
$var wire 10 4 h1_ones [9:0] $end
$var reg 4 5 infer_result [3:0] $end
$var reg 1 6 infer_pass $end
$var integer 32 7 infer_cycles [31:0] $end
$var integer 32 8 d [31:0] $end
$var integer 32 9 pass_cnt [31:0] $end
$var integer 32 : fail_cnt [31:0] $end
$scope module dut $end
$var wire 1 ; clk $end
$var wire 1 < rst_n $end
$var wire 1 = start $end
$var wire 784 > image_in [783:0] $end
$var reg 4 ? digit_out [3:0] $end
$var reg 1 @ valid $end
$var reg 3 A state [2:0] $end
$var reg 10 B neuron_idx [9:0] $end
$var reg 512 C hidden1 [511:0] $end
$var reg 256 D hidden2 [255:0] $end
$var reg 4 E argmax_idx [3:0] $end
$var reg 25 F argmax_max [24:0] $end
$var integer 32 G ai [31:0] $end
$scope function popcount784 $end
$upscope $end
$scope function popcount512 $end
$upscope $end
$scope function masked_sum $end
$upscope $end
$upscope $end
$scope begin watch_block $end
$var reg 3 H prev_st [2:0] $end
$var integer 32 I watch_tc [31:0] $end
$upscope $end
$scope task load_all_images $end
$upscope $end
$scope task run_inference $end
$var reg 784 J img [783:0] $end
$var integer 32 K expected [31:0] $end
$var integer 32 L tc [31:0] $end
$upscope $end
$upscope $end
$enddefinitions $end

#0
$dumpvars
1!
0"
0#
b0 $
b0 %
0&
b0 '
b0 (
bx )
bx *
bx +
bx ,
bx -
bx .
bx /
bx 0
bx 1
bx 2
bx 3
b0 4
bx 5
x6
bx 7
bx 8
bx 9
bx :
1;
0<
0=
b0 >
b0 ?
0@
b0 A
b0 B
b0 C
b0 D
bx E
bx F
bx G
bx H
bx I
bx J
bx K
bx L
$end

#5000
0!
0;

#10000
1!
1;

#15000
0!
0;

#20000
1!
1;

#25000
0!
0;

#30000
1!
1;

#35000
0!
0;

#40000
1!
1;

#41000
1"
1<

#45000
0!
0;

#50000
1!
1;

#55000
0!
0;

#60000
1!
1;

#61000
bx $
b0 9
b0 :
bx >
b0 K

#65000
0!
0;

#70000
1!
1;

#71000
1#
1=

#75000
0!
0;

#80000
1!
b1 '
1;
b1 A

#81000
0#
0=
b0 L

#85000
0!
0;

#90000
1!
b1 (
bx 4
1;
b1 B
b0x C

#91000
b1 L

#95000
0!
0;

#100000
1!
b10 (
1;
b10 B
b0xx C

#101000
b10 L

#105000
0!
0;

#110000
1!
b11 (
1;
b11 B
b0xxx C

#111000
b11 L

#115000
0!
0;

#120000
1!
b100 (
1;
b100 B
b0xxxx C

#121000
b100 L

#125000
0!
0;

#130000
1!
b101 (
1;
b101 B
b0xxxxx C

#131000
b101 L

#135000
0!
0;

#140000
1!
b110 (
1;
b110 B
b0xxxxxx C

#141000
b110 L

#145000
0!
0;

#150000
1!
b111 (
1;
b111 B
b0xxxxxxx C

#151000
b111 L

#155000
0!
0;

#160000
1!
b1000 (
1;
b1000 B
b0xxxxxxxx C

#161000
b1000 L

#165000
0!
0;

#170000
1!
b1001 (
1;
b1001 B
b0xxxxxxxxx C

#171000
b1001 L

#175000
0!
0;

#180000
1!
b1010 (
1;
b1010 B
b0xxxxxxxxxx C

#181000
b1010 L

#185000
0!
0;

#190000
1!
b1011 (
1;
b1011 B
b0xxxxxxxxxxx C

#191000
b1011 L

#195000
0!
0;

#200000
1!
b1100 (
1;
b1100 B
b0xxxxxxxxxxxx C

#201000
b1100 L

#205000
0!
0;

#210000
1!
b1101 (
1;
b1101 B
b0xxxxxxxxxxxxx C

#211000
b1101 L

#215000
0!
0;

#220000
1!
b1110 (
1;
b1110 B
b0xxxxxxxxxxxxxx C

#221000
b1110 L

#225000
0!
0;

#230000
1!
b1111 (
1;
b1111 B
b0xxxxxxxxxxxxxxx C

#231000
b1111 L

#235000
0!
0;

#240000
1!
b10000 (
1;
b10000 B
b0xxxxxxxxxxxxxxxx C

#241000
b10000 L

#245000
0!
0;

#250000
1!
b10001 (
1;
b10001 B
b0xxxxxxxxxxxxxxxxx C

#251000
b10001 L

#255000
0!
0;

#260000
1!
b10010 (
1;
b10010 B
b0xxxxxxxxxxxxxxxxxx C

#261000
b10010 L

#265000
0!
0;

#270000
1!
b10011 (
1;
b10011 B
b0xxxxxxxxxxxxxxxxxxx C

#271000
b10011 L

#275000
0!
0;

#280000
1!
b10100 (
1;
b10100 B
b0xxxxxxxxxxxxxxxxxxxx C

#281000
b10100 L

#285000
0!
0;

#290000
1!
b10101 (
1;
b10101 B
b0xxxxxxxxxxxxxxxxxxxxx C

#291000
b10101 L

#295000
0!
0;

#300000
1!
b10110 (
1;
b10110 B
b0xxxxxxxxxxxxxxxxxxxxxx C

#301000
b10110 L

#305000
0!
0;

#310000
1!
b10111 (
1;
b10111 B
b0xxxxxxxxxxxxxxxxxxxxxxx C

#311000
b10111 L

#315000
0!
0;

#320000
1!
b11000 (
1;
b11000 B
b0xxxxxxxxxxxxxxxxxxxxxxxx C

#321000
b11000 L

#325000
0!
0;

#330000
1!
b11001 (
1;
b11001 B
b0xxxxxxxxxxxxxxxxxxxxxxxxx C

#331000
b11001 L

#335000
0!
0;

#340000
1!
b11010 (
1;
b11010 B
b0xxxxxxxxxxxxxxxxxxxxxxxxxx C

#341000
b11010 L

#345000
0!
0;

#350000
1!
b11011 (
1;
b11011 B
b0xxxxxxxxxxxxxxxxxxxxxxxxxxx C

#351000
b11011 L

#355000
0!
0;

#360000
1!
b11100 (
1;
b11100 B
b0xxxxxxxxxxxxxxxxxxxxxxxxxxxx C

#361000
b11100 L

#365000
0!
0;

#370000
1!
b11101 (
1;
b11101 B
b0xxxxxxxxxxxxxxxxxxxxxxxxxxxxx C

#371000
b11101 L

#375000
0!
0;

#380000
1!
b11110 (
1;
b11110 B
b0xxxxxxxxxxxxxxxxxxxxxxxxxxxxxx C

#381000
b11110 L

#385000
0!
0;

#390000
1!
b11111 (
1;
b11111 B
b0xxxxxxxxxxxxxxxxxxxxxxxxxxxxxxx C

#391000
b11111 L

#395000
0!
0;

#400000
1!
b100000 (
1;
b100000 B
b0xxxxxxxxxxxxxxxxxxxxxxxxxxxxxxxx C

#401000
b100000 L

#405000
0!
0;

#410000
1!
b100001 (
1;
b100001 B
b0xxxxxxxxxxxxxxxxxxxxxxxxxxxxxxxxx C

#411000
b100001 L

#415000
0!
0;

#420000
1!
b100010 (
1;
b100010 B
b0xxxxxxxxxxxxxxxxxxxxxxxxxxxxxxxxxx C

#421000
b100010 L

#425000
0!
0;

#430000
1!
b100011 (
1;
b100011 B
b0xxxxxxxxxxxxxxxxxxxxxxxxxxxxxxxxxxx C

#431000
b100011 L

#435000
0!
0;

#440000
1!
b100100 (
1;
b100100 B
b0xxxxxxxxxxxxxxxxxxxxxxxxxxxxxxxxxxxx C

#441000
b100100 L

#445000
0!
0;

#450000
1!
b100101 (
1;
b100101 B
b0xxxxxxxxxxxxxxxxxxxxxxxxxxxxxxxxxxxxx C

#451000
b100101 L

#455000
0!
0;

#460000
1!
b100110 (
1;
b100110 B
b0xxxxxxxxxxxxxxxxxxxxxxxxxxxxxxxxxxxxxx C

#461000
b100110 L

#465000
0!
0;

#470000
1!
b100111 (
1;
b100111 B
b0xxxxxxxxxxxxxxxxxxxxxxxxxxxxxxxxxxxxxxx C

#471000
b100111 L

#475000
0!
0;

#480000
1!
b101000 (
1;
b101000 B
b0xxxxxxxxxxxxxxxxxxxxxxxxxxxxxxxxxxxxxxxx C

#481000
b101000 L

#485000
0!
0;

#490000
1!
b101001 (
1;
b101001 B
b0xxxxxxxxxxxxxxxxxxxxxxxxxxxxxxxxxxxxxxxxx C

#491000
b101001 L

#495000
0!
0;

#500000
1!
b101010 (
1;
b101010 B
b0xxxxxxxxxxxxxxxxxxxxxxxxxxxxxxxxxxxxxxxxxx C

#501000
b101010 L

#505000
0!
0;

#510000
1!
b101011 (
1;
b101011 B
b0xxxxxxxxxxxxxxxxxxxxxxxxxxxxxxxxxxxxxxxxxxx C

#511000
b101011 L

#515000
0!
0;

#520000
1!
b101100 (
1;
b101100 B
b0xxxxxxxxxxxxxxxxxxxxxxxxxxxxxxxxxxxxxxxxxxxx C

#521000
b101100 L

#525000
0!
0;

#530000
1!
b101101 (
1;
b101101 B
b0xxxxxxxxxxxxxxxxxxxxxxxxxxxxxxxxxxxxxxxxxxxxx C

#531000
b101101 L

#535000
0!
0;

#540000
1!
b101110 (
1;
b101110 B
b0xxxxxxxxxxxxxxxxxxxxxxxxxxxxxxxxxxxxxxxxxxxxxx C

#541000
b101110 L

#545000
0!
0;

#550000
1!
b101111 (
1;
b101111 B
b0xxxxxxxxxxxxxxxxxxxxxxxxxxxxxxxxxxxxxxxxxxxxxxx C

#551000
b101111 L

#555000
0!
0;

#560000
1!
b110000 (
1;
b110000 B
b0xxxxxxxxxxxxxxxxxxxxxxxxxxxxxxxxxxxxxxxxxxxxxxxx C

#561000
b110000 L

#565000
0!
0;

#570000
1!
b110001 (
1;
b110001 B
b0xxxxxxxxxxxxxxxxxxxxxxxxxxxxxxxxxxxxxxxxxxxxxxxxx C

#571000
b110001 L

#575000
0!
0;

#580000
1!
b110010 (
1;
b110010 B
b0xxxxxxxxxxxxxxxxxxxxxxxxxxxxxxxxxxxxxxxxxxxxxxxxxx C

#581000
b110010 L

#585000
0!
0;

#590000
1!
b110011 (
1;
b110011 B
b0xxxxxxxxxxxxxxxxxxxxxxxxxxxxxxxxxxxxxxxxxxxxxxxxxxx C

#591000
b110011 L

#595000
0!
0;

#600000
1!
b110100 (
1;
b110100 B
b0xxxxxxxxxxxxxxxxxxxxxxxxxxxxxxxxxxxxxxxxxxxxxxxxxxxx C

#601000
b110100 L

#605000
0!
0;

#610000
1!
b110101 (
1;
b110101 B
b0xxxxxxxxxxxxxxxxxxxxxxxxxxxxxxxxxxxxxxxxxxxxxxxxxxxxx C

#611000
b110101 L

#615000
0!
0;

#620000
1!
b110110 (
1;
b110110 B
b0xxxxxxxxxxxxxxxxxxxxxxxxxxxxxxxxxxxxxxxxxxxxxxxxxxxxxx C

#621000
b110110 L

#625000
0!
0;

#630000
1!
b110111 (
1;
b110111 B
b0xxxxxxxxxxxxxxxxxxxxxxxxxxxxxxxxxxxxxxxxxxxxxxxxxxxxxxx C

#631000
b110111 L

#635000
0!
0;

#640000
1!
b111000 (
1;
b111000 B
b0xxxxxxxxxxxxxxxxxxxxxxxxxxxxxxxxxxxxxxxxxxxxxxxxxxxxxxxx C

#641000
b111000 L

#645000
0!
0;

#650000
1!
b111001 (
1;
b111001 B
b0xxxxxxxxxxxxxxxxxxxxxxxxxxxxxxxxxxxxxxxxxxxxxxxxxxxxxxxxx C

#651000
b111001 L

#655000
0!
0;

#660000
1!
b111010 (
1;
b111010 B
b0xxxxxxxxxxxxxxxxxxxxxxxxxxxxxxxxxxxxxxxxxxxxxxxxxxxxxxxxxx C

#661000
b111010 L

#665000
0!
0;

#670000
1!
b111011 (
1;
b111011 B
b0xxxxxxxxxxxxxxxxxxxxxxxxxxxxxxxxxxxxxxxxxxxxxxxxxxxxxxxxxxx C

#671000
b111011 L

#675000
0!
0;

#680000
1!
b111100 (
1;
b111100 B
b0xxxxxxxxxxxxxxxxxxxxxxxxxxxxxxxxxxxxxxxxxxxxxxxxxxxxxxxxxxxx C

#681000
b111100 L

#685000
0!
0;

#690000
1!
b111101 (
1;
b111101 B
b0xxxxxxxxxxxxxxxxxxxxxxxxxxxxxxxxxxxxxxxxxxxxxxxxxxxxxxxxxxxxx C

#691000
b111101 L

#695000
0!
0;

#700000
1!
b111110 (
1;
b111110 B
b0xxxxxxxxxxxxxxxxxxxxxxxxxxxxxxxxxxxxxxxxxxxxxxxxxxxxxxxxxxxxxx C

#701000
b111110 L

#705000
0!
0;

#710000
1!
b111111 (
1;
b111111 B
b0xxxxxxxxxxxxxxxxxxxxxxxxxxxxxxxxxxxxxxxxxxxxxxxxxxxxxxxxxxxxxxx C

#711000
b111111 L

#715000
0!
0;

#720000
1!
b1000000 (
1;
b1000000 B
b0xxxxxxxxxxxxxxxxxxxxxxxxxxxxxxxxxxxxxxxxxxxxxxxxxxxxxxxxxxxxxxxx C

#721000
b1000000 L

#725000
0!
0;

#730000
1!
b1000001 (
1;
b1000001 B
b0xxxxxxxxxxxxxxxxxxxxxxxxxxxxxxxxxxxxxxxxxxxxxxxxxxxxxxxxxxxxxxxxx C

#731000
b1000001 L

#735000
0!
0;

#740000
1!
b1000010 (
1;
b1000010 B
b0xxxxxxxxxxxxxxxxxxxxxxxxxxxxxxxxxxxxxxxxxxxxxxxxxxxxxxxxxxxxxxxxxx C

#741000
b1000010 L

#745000
0!
0;

#750000
1!
b1000011 (
1;
b1000011 B
b0xxxxxxxxxxxxxxxxxxxxxxxxxxxxxxxxxxxxxxxxxxxxxxxxxxxxxxxxxxxxxxxxxxx C

#751000
b1000011 L

#755000
0!
0;

#760000
1!
b1000100 (
1;
b1000100 B
b0xxxxxxxxxxxxxxxxxxxxxxxxxxxxxxxxxxxxxxxxxxxxxxxxxxxxxxxxxxxxxxxxxxxx C

#761000
b1000100 L

#765000
0!
0;

#770000
1!
b1000101 (
1;
b1000101 B
b0xxxxxxxxxxxxxxxxxxxxxxxxxxxxxxxxxxxxxxxxxxxxxxxxxxxxxxxxxxxxxxxxxxxxx C

#771000
b1000101 L

#775000
0!
0;

#780000
1!
b1000110 (
1;
b1000110 B
b0xxxxxxxxxxxxxxxxxxxxxxxxxxxxxxxxxxxxxxxxxxxxxxxxxxxxxxxxxxxxxxxxxxxxxx C

#781000
b1000110 L

#785000
0!
0;

#790000
1!
b1000111 (
1;
b1000111 B
b0xxxxxxxxxxxxxxxxxxxxxxxxxxxxxxxxxxxxxxxxxxxxxxxxxxxxxxxxxxxxxxxxxxxxxxx C

#791000
b1000111 L

#795000
0!
0;

#800000
1!
b1001000 (
1;
b1001000 B
b0xxxxxxxxxxxxxxxxxxxxxxxxxxxxxxxxxxxxxxxxxxxxxxxxxxxxxxxxxxxxxxxxxxxxxxxx C

#801000
b1001000 L

#805000
0!
0;

#810000
1!
b1001001 (
1;
b1001001 B
b0xxxxxxxxxxxxxxxxxxxxxxxxxxxxxxxxxxxxxxxxxxxxxxxxxxxxxxxxxxxxxxxxxxxxxxxxx C

#811000
b1001001 L

#815000
0!
0;

#820000
1!
b1001010 (
1;
b1001010 B
b0xxxxxxxxxxxxxxxxxxxxxxxxxxxxxxxxxxxxxxxxxxxxxxxxxxxxxxxxxxxxxxxxxxxxxxxxxx C

#821000
b1001010 L

#825000
0!
0;

#830000
1!
b1001011 (
1;
b1001011 B
b0xxxxxxxxxxxxxxxxxxxxxxxxxxxxxxxxxxxxxxxxxxxxxxxxxxxxxxxxxxxxxxxxxxxxxxxxxxx C

#831000
b1001011 L

#835000
0!
0;

#840000
1!
b1001100 (
1;
b1001100 B
b0xxxxxxxxxxxxxxxxxxxxxxxxxxxxxxxxxxxxxxxxxxxxxxxxxxxxxxxxxxxxxxxxxxxxxxxxxxxx C

#841000
b1001100 L

#845000
0!
0;

#850000
1!
b1001101 (
1;
b1001101 B
b0xxxxxxxxxxxxxxxxxxxxxxxxxxxxxxxxxxxxxxxxxxxxxxxxxxxxxxxxxxxxxxxxxxxxxxxxxxxxx C

#851000
b1001101 L

#855000
0!
0;

#860000
1!
b1001110 (
1;
b1001110 B
b0xxxxxxxxxxxxxxxxxxxxxxxxxxxxxxxxxxxxxxxxxxxxxxxxxxxxxxxxxxxxxxxxxxxxxxxxxxxxxx C

#861000
b1001110 L

#865000
0!
0;

#870000
1!
b1001111 (
1;
b1001111 B
b0xxxxxxxxxxxxxxxxxxxxxxxxxxxxxxxxxxxxxxxxxxxxxxxxxxxxxxxxxxxxxxxxxxxxxxxxxxxxxxx C

#871000
b1001111 L

#875000
0!
0;

#880000
1!
b1010000 (
1;
b1010000 B
b0xxxxxxxxxxxxxxxxxxxxxxxxxxxxxxxxxxxxxxxxxxxxxxxxxxxxxxxxxxxxxxxxxxxxxxxxxxxxxxxx C

#881000
b1010000 L

#885000
0!
0;

#890000
1!
b1010001 (
1;
b1010001 B
b0xxxxxxxxxxxxxxxxxxxxxxxxxxxxxxxxxxxxxxxxxxxxxxxxxxxxxxxxxxxxxxxxxxxxxxxxxxxxxxxxx C

#891000
b1010001 L

#895000
0!
0;

#900000
1!
b1010010 (
1;
b1010010 B
b0xxxxxxxxxxxxxxxxxxxxxxxxxxxxxxxxxxxxxxxxxxxxxxxxxxxxxxxxxxxxxxxxxxxxxxxxxxxxxxxxxx C

#901000
b1010010 L

#905000
0!
0;

#910000
1!
b1010011 (
1;
b1010011 B
b0xxxxxxxxxxxxxxxxxxxxxxxxxxxxxxxxxxxxxxxxxxxxxxxxxxxxxxxxxxxxxxxxxxxxxxxxxxxxxxxxxxx C

#911000
b1010011 L

#915000
0!
0;

#920000
1!
b1010100 (
1;
b1010100 B
b0xxxxxxxxxxxxxxxxxxxxxxxxxxxxxxxxxxxxxxxxxxxxxxxxxxxxxxxxxxxxxxxxxxxxxxxxxxxxxxxxxxxx C

#921000
b1010100 L

#925000
0!
0;

#930000
1!
b1010101 (
1;
b1010101 B
b0xxxxxxxxxxxxxxxxxxxxxxxxxxxxxxxxxxxxxxxxxxxxxxxxxxxxxxxxxxxxxxxxxxxxxxxxxxxxxxxxxxxxx C

#931000
b1010101 L

#935000
0!
0;

#940000
1!
b1010110 (
1;
b1010110 B
b0xxxxxxxxxxxxxxxxxxxxxxxxxxxxxxxxxxxxxxxxxxxxxxxxxxxxxxxxxxxxxxxxxxxxxxxxxxxxxxxxxxxxxx C

#941000
b1010110 L

#945000
0!
0;

#950000
1!
b1010111 (
1;
b1010111 B
b0xxxxxxxxxxxxxxxxxxxxxxxxxxxxxxxxxxxxxxxxxxxxxxxxxxxxxxxxxxxxxxxxxxxxxxxxxxxxxxxxxxxxxxx C

#951000
b1010111 L

#955000
0!
0;

#960000
1!
b1011000 (
1;
b1011000 B
b0xxxxxxxxxxxxxxxxxxxxxxxxxxxxxxxxxxxxxxxxxxxxxxxxxxxxxxxxxxxxxxxxxxxxxxxxxxxxxxxxxxxxxxxx C

#961000
b1011000 L

#965000
0!
0;

#970000
1!
b1011001 (
1;
b1011001 B
b0xxxxxxxxxxxxxxxxxxxxxxxxxxxxxxxxxxxxxxxxxxxxxxxxxxxxxxxxxxxxxxxxxxxxxxxxxxxxxxxxxxxxxxxxx C

#971000
b1011001 L

#975000
0!
0;

#980000
1!
b1011010 (
1;
b1011010 B
b0xxxxxxxxxxxxxxxxxxxxxxxxxxxxxxxxxxxxxxxxxxxxxxxxxxxxxxxxxxxxxxxxxxxxxxxxxxxxxxxxxxxxxxxxxx C

#981000
b1011010 L

#985000
0!
0;

#990000
1!
b1011011 (
1;
b1011011 B
b0xxxxxxxxxxxxxxxxxxxxxxxxxxxxxxxxxxxxxxxxxxxxxxxxxxxxxxxxxxxxxxxxxxxxxxxxxxxxxxxxxxxxxxxxxxx C

#991000
b1011011 L

#995000
0!
0;

#1000000
1!
b1011100 (
1;
b1011100 B
b0xxxxxxxxxxxxxxxxxxxxxxxxxxxxxxxxxxxxxxxxxxxxxxxxxxxxxxxxxxxxxxxxxxxxxxxxxxxxxxxxxxxxxxxxxxxx C
